<?xml version="1.0" encoding="utf-8"?>
<!-- Generator: Adobe Illustrator 19.0.1, SVG Export Plug-In . SVG Version: 6.00 Build 0)  -->
<svg version="1.1" id="Layer_1" xmlns="http://www.w3.org/2000/svg" xmlns:xlink="http://www.w3.org/1999/xlink" x="0px" y="0px"
	 viewBox="0 1 29 29" style="enable-background:new 0 1 29 29;" xml:space="preserve">
<style type="text/css">
	.st0{display:none;}
	.st1{display:inline;}
	.st2{fill:#E07624;}
	.st3{display:none;opacity:0.25;}
	.st4{display:inline;fill:#58595B;}
	.st5{fill:#58595B;}
	.st6{fill:#5FA9C5;}
	.st7{fill:#8BC33E;}
</style>
<g>
	<g class="st0">
		<g class="st1">
			<path class="st2" d="M26.1,22.1c-0.2-0.6-1.1-1.6-1-2.9s1.1-4.2,0.9-5.4c-0.3-1.2-1.6-4.9-5-5.4s-5.8,0.4-7.1,0.3
				c-1.3-0.1-1.5-1-3-1C9,7.7,8.7,8.5,7.4,8.9c-1,0.3-4,0.3-4,0.3S2.5,8.1,2.3,8.5C2,8.9,1.7,9.9,1.7,9.9s-1.6,0.6-1.8,0.9
				c-0.1,0.3-0.4,0.8-0.4,0.8s-1.7,0.4-1.9,0.9c-0.2,0.4,0.7,1.4,1,1.7s3.8,0.4,4.3,0.8c0.6,0.4,2.1,0.7,3,0.9
				c1.6,0.3,2.3,3.5,2.7,7c-0.5,0.4-1.3,0.8-1.4,1.9h5.3c0,0,0.1-0.8,0.2-1.7c0.1-0.9,1.7-4.5,1.7-4.5s1.2,0.9,1.9,0.9
				c-0.1,0.7,0.3,1.5,0.3,1.5s0.7,0.8,1.3,1.5c-1.2,0.5-1.2,1.4-1.2,1.4h4.5c0,0,0.4-0.9,0.4-1.7c0.6,0.9,1.8,1.2,1.8,1.2l-0.7,1.4
				h2.7C25.5,24.8,26.3,22.7,26.1,22.1L26.1,22.1z M0.9,11.8c-0.2,0-0.4-0.2-0.4-0.4S0.7,11,0.9,11s0.4,0.2,0.4,0.4
				S1.1,11.8,0.9,11.8L0.9,11.8z"/>
		</g>
	</g>
	<g class="st3">
		<path class="st4" d="M23.6,22c-0.4-0.7-1.4-2.8-2-3.8c-0.2-0.4-0.6-0.7-1.1-0.7c-0.6-0.1-1.4-0.1-2-0.2c-0.7-2.1-1.8-4.1-3.3-5.8
			c0.4-0.7,0.8-1.5,0.9-1.6c0,0,0.1-0.1,0.2-0.1c0,0,3.8-1.1,4.1-1.2c0.4-0.1,0.7-0.5,0.8-0.7c0.5-0.8,0.9-1.3,0.9-1.3
			c0.1-0.2,0.1-0.4-0.1-0.5S21.6,6,21.5,6.2c0,0-1,1.4-1.4,1.5c-0.3,0.1-3.9,0.7-3.9,0.7c-1,0.2-1.5,0.7-2,1.5
			c0.2-0.7-0.2-1.5-1-1.7C13.2,7.6,12.6,7,12,7c-0.6,0-1.2,0.6-1.2,1.2C9.9,8.2,9.4,9,9.6,9.7c-0.5-0.7-1-1.3-2-1.5
			c0,0-3.6-0.6-3.9-0.7c-0.5,0-1.5-1.4-1.5-1.4C2.1,6,1.9,5.9,1.7,6.1C1.5,6.2,1.5,6.4,1.6,6.6c0,0,0.4,0.5,0.9,1.3
			C2.7,8.1,3,8.5,3.4,8.6c0.3,0.1,4,1.1,4.1,1.2c0.1,0,0.1,0.1,0.2,0.1c0.1,0.1,0.5,1,0.9,1.6C7,13.2,6,15.2,5.3,17.3
			c-0.5,0-1.4,0.1-2,0.2c-0.5,0-0.9,0.3-1.1,0.7c-0.6,1.1-1.6,3.1-2,3.8c-0.1,0.2,0,0.4,0.1,0.5c0.2,0.1,0.4,0.1,0.5-0.1
			c1.2-1.7,2.1-2.9,2.5-3.5C4,19,4.7,19.1,4.7,19.1C4.3,21,4.1,23,4.1,25c0,0.6,0,1.2,0.3,1.6c0.3,0.5,0.7,0.7,1.2,0.8
			c1.3,0,3.2-0.2,4.9-1.3c0.6-0.4,1.1-1.1,1.4-1.9c0.3,0.8,0.8,1.4,1.4,1.9c1.7,1.2,3.6,1.4,4.9,1.3c0.5,0,0.9-0.3,1.2-0.8
			c0.3-0.5,0.3-1,0.3-1.6c0-2-0.2-4-0.6-5.9c0,0,0.7-0.1,1.4-0.2c0.4,0.6,1.3,1.8,2.5,3.5c0.1,0.2,0.4,0.2,0.5,0.1
			C23.6,22.4,23.7,22.2,23.6,22L23.6,22z"/>
	</g>
	<g class="st3">
		<g class="st1">
			<path class="st5" d="M23.8,8.4c-2.1-2.1-6.1-2.1-9.8-0.2c-0.1,1.8,0.6,3.8,2,5.3c1.2,1.2,2.6,1.8,4.1,2
				C23,12.1,24.5,9.1,23.8,8.4L23.8,8.4z M19.9,9.7c-0.4,0.3-0.9,0.3-1.2,0s-0.3-0.8,0-1.2c0.3-0.3,0.8-0.3,1.2,0
				C20.2,8.8,20.2,9.4,19.9,9.7L19.9,9.7z"/>
			<path class="st5" d="M12.6,9c-0.3,0.2-0.6,0.4-0.8,0.6l-0.6-0.3C10.6,8.9,9.9,9,9.5,9.5L5,14c-0.3,0.3-0.5,0.8-0.4,1.2
				c0.1,0.5,0.4,0.9,0.8,1.1l1,0.5c-1,2.4-1.6,4.7-1.7,6.2l-4.5,1.5C0,24.6-0.1,24.8-0.2,25c0,0.2,0.1,0.4,0.3,0.5l2,0.9
				c0.4,0.2,0.7,0.5,0.9,0.9l0.9,1.9c0.1,0.2,0.3,0.3,0.5,0.3s0.4-0.2,0.5-0.4l1.5-4.5c2.1-0.3,5.7-2,8.9-4.4l0.4,1.1
				c0.1,0.2,0.2,0.3,0.4,0.4c0.2,0,0.4,0,0.6-0.2l0.4-0.4c0.3-0.3,0.5-0.7,0.5-1.1l0.1-1.9c0.6-0.6,1.1-1.1,1.6-1.7
				c-1.5-0.3-2.9-1.1-4-2.3C13.6,12.9,12.7,10.9,12.6,9L12.6,9z"/>
		</g>
	</g>
	<g class="st3">
		<g class="st1">
			<path class="st5" d="M15.8,18.2H7.9l-0.6,4.1C7.1,23.6,7.5,25,8.4,26c0.9,1,2.2,1.6,3.5,1.6c1.4,0,2.6-0.6,3.5-1.6
				s1.3-2.4,1.1-3.7L15.8,18.2z"/>
			<path class="st5" d="M23.4,13.4c-1.5-5-6.1-8.6-11.5-8.6s-10,3.6-11.5,8.6c-0.2,0.8-0.1,1.6,0.4,2.3c0.5,0.6,1.2,1,2,1h18.1
				c0.8,0,1.6-0.4,2-1C23.5,15,23.6,14.2,23.4,13.4L23.4,13.4z M6.1,14.9c-0.9,0-1.7-0.8-1.7-1.7s0.8-1.7,1.7-1.7s1.7,0.8,1.7,1.7
				C7.8,14.1,7,14.9,6.1,14.9L6.1,14.9z M9.1,10.5c-0.9,0-1.7-0.8-1.7-1.7s0.8-1.7,1.7-1.7s1.7,0.8,1.7,1.7
				C10.8,9.8,10,10.5,9.1,10.5L9.1,10.5z M12.2,14.2c-0.9,0-1.6-0.7-1.6-1.6c0-0.9,0.7-1.6,1.6-1.6c0.9,0,1.6,0.7,1.6,1.6
				S13.1,14.2,12.2,14.2L12.2,14.2z M14.2,8.8c0-0.7,0.6-1.3,1.3-1.3c0.7,0,1.3,0.6,1.3,1.3s-0.6,1.3-1.3,1.3
				C14.8,10.1,14.2,9.5,14.2,8.8L14.2,8.8z M18.2,15.3c-1.2,0-2.1-1-2.1-2.1c0-1.2,1-2.1,2.1-2.1c1.2,0,2.1,1,2.1,2.1
				C20.3,14.4,19.3,15.3,18.2,15.3L18.2,15.3z"/>
		</g>
	</g>
	<g class="st0">
		<g class="st1">
			<path class="st6" d="M18.8,9.4c-0.2-0.9-0.2-1.8-0.3-2.6c-0.2-1.2-0.6-2.4-1.5-3.2c-1.1-1-2.7-1.1-3.9-0.3c0,0.1-0.1,0.2-0.1,0.4
				c0,0,0,0.1-0.1,0.1c0,0.1-0.1,0.2-0.1,0.2l0,0l0,0c0,0-0.1,0.1-0.2,0.1c-0.3,0.2-0.7,0.3-0.9,0.6c-0.2,0.1-0.3,0.4-0.4,0.6
				c-0.1,0.1-0.1,0.2-0.1,0.2s0.1,0,0.2,0c0.1,0,0.2,0,0.2-0.1c1.3-0.6,2.7,0.3,2.8,1.7c0,0.8-0.3,1.7-0.8,2.4
				c-0.3,0.5-0.7,1.4-1.2,1.8c-0.4,0.3-0.9,0.3-1.4,0.6C9.9,12.6,9.2,14,8.5,15c-0.6,1-1.2,2.1-1.8,3.1c-0.6,0.9-1.4,1.7-2,2.5
				c-0.1,0.1-0.1,0.2,0,0.3c0,0.1,0.1,0.2,0.1,0.3c0,0.1,0.1,0.2,0.2,0.3c0.5,0.4-1.3,1.8-1.9,2.2c-0.1,0.1-0.1,0.1,0,0.2
				C4.6,24,6.2,23.6,7.5,23c0.1-0.1,0.3-0.1,0.4-0.2c0.2-0.1,0.4-0.3,0.6-0.4s2.3-0.2,2,0.3c-0.6,1.1,0,2.3,0.2,3.4
				c0.1,0.5,0,0.8-0.1,1.2c0,0.1-0.1,0.2-0.2,0.2c-0.4,0.1-0.7,0.2-0.5,0.3c0.2,0.1,0.4,0.3,0.5,0.4s0.1,0.2,0.1,0.4
				c0.1,0.4,0.2,0.8,0.3,1.2c0,0.1,0.1,0.1,0.2,0c0.5-0.8,0.6-1.2,1.5-1c0.6,0.1,1.3,0.3,1.9,0.5c0.1,0,0.1,0,0-0.1
				c-0.3-0.2-0.6-0.5-0.9-0.7c-0.1-0.1-0.1-0.1,0-0.1c0.6,0.1,0.7-0.4,1-0.6c0.1-0.1,0.1-0.1,0,0c-0.5,0.1-0.9,0.2-1.4,0.1
				c-1.4-0.1-1.8-1.3-1.6-2.6c0.1-0.7,0.7-3,1.5-3.2c0.4-0.1,0.8,0.1,0.9,0.5c0.2,0.3,0.1,0.7,0.1,1.1s0,0.8,0.1,1.1
				c0.1,0.3,0.4,0.5,0.7,0.8c0.2,0.2,0.4,0.6,0.3,0.9C15,26.8,14.7,27,14.4,27c-0.2,0-0.5,0-0.7,0c-0.1,0-0.1,0-0.1,0.1
				c0.6,0.5,2,0,1.7,1.1c-0.1,0.2-0.1,0.4-0.2,0.7c0,0.1,0,0.2,0.1,0.1c0.4-0.2,0.6-0.5,0.6-1c0-0.1,2.3,0.6,2.4,0.7
				c0.2,0.1,0.4,0.1,0.6,0.1c0.1,0,0.2,0,0.1-0.1c0.1-0.5,0-0.7-0.4-0.7c-0.3-0.1-0.6-0.2-0.9-0.3c-0.1,0-0.1-0.1,0-0.1
				c0.6,0,1.8,0.2,1.8-0.4c0-0.1-0.1-0.2-0.2-0.2c-0.2,0-0.4,0.1-0.6,0.1c-0.8,0-1.6,0.1-2.2-0.4s-0.7-1.6-0.6-2.3
				c0.2-3.5,3.8-5.5,4.8-8.8c0.5-1.6,0.1-3-0.7-4.4C19.3,10.6,19,10.2,18.8,9.4L18.8,9.4z"/>
		</g>
	</g>
	<g class="st3">
		<g class="st1">
			<path class="st5" d="M16.7,4.4c-3.9,6.5-7,3.3-11.6,7.9c-4,4.1-2.6,9.1,0.8,10.8c3.3-1.7,6.7-5.5,9.2-11c0,0,2.3,6.9-4.7,13.6
				c3.4,3.9,9.1,1.2,10.7-5.1C22.9,13.8,18.3,6.8,16.7,4.4L16.7,4.4z M2.2,26.8c0,0.1,0.1,1.3,1.7,1.3c1.2,0,7.4-3.4,10.5-12.1
				C9.8,24.5,2.8,26.6,2.2,26.8L2.2,26.8z"/>
		</g>
	</g>
	<g class="st0">
		<g class="st1">
			<path class="st7" d="M25.4,19.6c-0.7-0.4-1.3-0.8-2-1.1c0,0-0.1-0.1-0.2-0.1c0.3,0,0.6-0.1,0.9-0.1c0.7,0,1.3-0.1,2-0.3
				c0.3-0.1,0.5-0.2,0.7-0.5c0.1-0.2,0.1-0.2,0-0.3c0.1-0.2,0.2-0.6-0.1-0.9c0,0-0.1,0.5-0.3,0.7c-0.1-0.1-0.2-0.1-0.4-0.2
				c-0.1,0.1-0.4,0.1-0.6,0c0,0,0,0,0,0.1l0,0c-0.1,0-0.2,0-0.3,0c-0.1,0-0.2,0-0.2,0c-0.1,0.1-0.2,0.1-0.3,0
				C24.5,17,24.3,17,24.1,17c-0.4-0.1-0.8-0.1-1.1-0.2c-0.1,0-0.2,0-0.2,0l0,0c0.1,0,0.1,0,0.2,0c0.5,0,1,0,1.5-0.1
				c0.2,0,0.4-0.1,0.7-0.1c0.2,0,0.3-0.1,0.5-0.1c0,0.2-0.1,0.3-0.1,0.3c0.3,0,0.4-0.2,0.5-0.4l0,0c-0.1,0.2-0.2,0.4-0.2,0.4
				c0.4,0,0.6-0.3,0.7-0.6c0,0,0.1,0,0.1-0.1c0.3-0.1,0.4-0.2,0.4-0.6c0-0.3-0.2-0.5-0.5-0.6C26.3,15,26,15,25.8,15s-0.3,0-0.5,0
				s-0.4-0.1-0.6-0.2c-0.1-0.1-0.3-0.1-0.4-0.1c-0.4,0-0.8,0.1-1.1,0c-0.1,0-0.2,0-0.3,0c-0.3,0.1-0.7,0.1-1,0.1s-0.6,0-0.9,0.1
				c-0.5,0.1-0.9,0.4-1.2,0.9l-0.1,0.1c-0.5,0.3-0.7,0.7-1,1.2c-0.2,0.4-0.1,0.8,0.2,1.2c0.3,0.4,0.7,0.8,1.1,1.1
				c0.6,0.5,1.3,1,2,1.4c0.7,0.5,1.5,1,2.3,1.5c0.5,0.3,0.9,0.7,1.3,1.3c-0.2,0.1-0.4,0.2-0.6,0.2c-0.3,0.1-0.6,0.1-0.9,0.2
				c-0.2,0-0.4,0.1-0.6,0.1c-0.4,0-0.8,0-1.2,0c-0.5,0-0.9-0.1-1.4-0.2c-0.8-0.1-1.5-0.4-2.3-0.6c-0.3-0.1-0.5-0.3-0.8-0.5
				c-0.1-0.1-0.1-0.2-0.1-0.3c-0.2-1.3-0.7-2.4-1.5-3.5c-0.4-0.5-0.8-0.9-1.3-1.2c-0.9-0.7-2-1.1-3-1.5c-1.2-0.4-2.4-0.7-3.7-0.9
				c-1-0.2-2-0.2-3-0.5c-0.6-0.2-1.2-0.4-1.9-0.7C3.4,14.1,3.5,14,3.6,14c0.6-0.3,1.2-0.6,1.7-1c0.4-0.2,0.7-0.5,0.9-0.9
				c0.3-0.5,0.3-1,0.1-1.5S5.7,9.7,5.2,9.5c-1-0.5-2-0.6-2.9-0.6C1,8.8-0.4,8.8-1.7,8.8c-0.9,0-1.7-0.3-2.4-0.8
				c-0.5-0.4-0.7-1-0.5-1.6c0.1-0.3,0.2-0.5,0.3-0.8c0,0,0-0.1,0-0.2c-0.5,0.6-0.9,1.2-0.8,2C-5,7.8-4.9,8.2-4.6,8.5
				c0.6,0.6,1.3,1,2.2,1.2C-1.7,9.9-1,10-0.3,10c1,0.1,2.1,0.2,3.1,0.4c0.4,0.1,0.8,0.2,1.2,0.4c0,0.1,0.1,0.1,0.2,0.2
				C4.1,11,4,11,4,11c-0.6,0.3-1.3,0.5-1.9,0.8c-0.8,0.4-1.6,1-1.8,1.9c-0.3,1.1-0.2,1.8,0.8,2.7c0.8,0.7,1.8,1.1,2.9,1.4
				c1,0.3,2.1,0.5,3.1,0.7c1,0.1,2,0.4,2.9,0.7c0.7,0.2,1.4,0.5,2.1,0.9c0.4,0.3,0.8,0.5,1,0.9c0.3,0.5,0.4,1,0.5,1.5
				c0.1,0.4,0.1,0.8,0.2,1.2c0.2,0.9,0.7,1.5,1.4,2.1c0.8,0.7,1.7,1.1,2.7,1.4c1.3,0.4,2.6,0.6,3.9,0.7c1.6,0,3.1-0.2,4.5-0.8
				c0.9-0.4,1.6-0.9,2.1-1.7c0.1-0.2,0.2-0.4,0.3-0.7c0.2-0.9-0.1-1.8-0.6-2.6C27.6,21,26.5,20.3,25.4,19.6L25.4,19.6z"/>
		</g>
	</g>
	<g class="st3">
		<g class="st1">
			<path class="st5" d="M20.6,15.2c-0.5-0.4-1.2-0.6-1.7-0.8s-1-0.4-1.4-0.8c-0.5-0.4-0.7-0.9-1-1.4c-0.5-0.6-1.8-0.7-2.5-1
				c-0.8-0.4-1.5-1-2-1.8l0,0c-0.3-0.5-0.6-0.9-1.3-0.9c-0.8,0.1-1,0.9-1.2,1.5c-0.2,0.7-0.4,1.5-0.9,2.1c-0.4,0.5-0.9,0.8-1.4,1
				c-0.4,0.1-0.8,0.2-1.1,0.2c-0.4,0.1-0.5,0-0.5,0.4c0,0.3-0.1,0.6-0.2,1c-0.4,1.3-1.3,2.1-2,2.6c-0.5,0.4-1.2,1.3-0.5,1.8
				c0.8,0.6,2.1,0.6,3,1.1C6,20.6,6.2,20.8,6.4,21C6.8,21.3,7,21.8,7,22.2c0,0.4,0,0.8-0.2,1.2c-0.3,0.6-0.7,1-1.4,1.4
				C5,25,4.5,25.2,4.1,25.3c-0.8,0.3-1.7,0.9-1.2,1.9c0.2,0.4,0.6,0.6,1.1,0.6l0,0c0.3,0,0.7-0.1,1-0.4c1.1-0.7,1.1-2.1,2-2.9
				c0.3-0.3,0.6-0.4,1-0.6c0.3-0.1,0.6-0.1,0.9-0.1c0.8,0,1.7,0.4,2.1,1.1c0.4,0.6,0.5,1.4,1.1,1.9c1,0.8,1.9,0.4,2.7-0.5
				c0.5-0.6,1.1-1,1.8-1.3c0.6-0.2,1.3-0.1,1.8-0.3c1-0.4,0.7-1.1,0.2-1.8c-0.7-0.9-1.2-2.2-0.6-3.4c0.4-0.8,1.2-1.3,2-1.6
				c0.7-0.3,1.3-0.9,1.2-1.7C21.2,15.8,20.9,15.5,20.6,15.2L20.6,15.2z M7.5,18.3c-0.5,0-0.9-0.4-0.9-0.9s0.4-0.9,0.9-0.9
				s0.9,0.4,0.9,0.9S8,18.3,7.5,18.3L7.5,18.3z M13.6,17.1c-0.7,0-1.3-0.6-1.3-1.3s0.6-1.3,1.3-1.3s1.3,0.6,1.3,1.3
				C14.8,16.5,14.3,17.1,13.6,17.1L13.6,17.1z"/>
			<path class="st5" d="M21.9,13.5c-0.7-0.5-1.5-0.9-2.4-1.2c-0.7-0.2-1-0.8-1.4-1.3c-0.4-0.6-1-1-1.7-1.2c-0.7-0.2-1.6-0.3-2.1-0.7
				s-0.7-1-1-1.5c-0.5-0.6-1.2-1-1.9-1.2C9.8,6.1,8.4,7,7.7,8.5C7.4,9.2,7.4,10,7,10.7c-0.4,0.5-1,0.6-1.5,0.7
				c-0.7,0.1-1.3,0.3-1.7,0.9c-0.6,0.8-0.3,1.8-0.8,2.6c-0.4,0.6-1,1.1-1.5,1.6c-1.3,1-1.5,2.8-0.5,4.1c0.6,0.7,1.4,1,2.3,1.3
				C3.7,22,4.8,22,4.8,22.6c0,0.5-1,0.7-1.3,0.8c-0.6,0.2-1.3,0.4-1.8,1c-0.9,0.9-1.2,2.3-0.8,3.5c0.4,1,1.2,1.8,2.2,2.1
				c0.9,0.1,1.8,0,2.6-0.3c1.2-0.5,2.2-1.6,2.6-2.8c0.1-0.4,0.4-0.9,0.9-0.8c0.4,0.1,0.4,0.5,0.5,0.9c0.2,0.4,0.4,0.8,0.7,1.1
				c0.6,0.6,1.3,1.1,2.1,1.3c0.8,0.3,1.8,0.2,2.6-0.2c0.9-0.4,1.2-1.3,1.9-1.8c0.5-0.4,1.2-0.4,1.8-0.5c1.5-0.3,2.7-1.6,2.6-3.2
				c0-0.7-0.3-1.3-0.7-1.8c-0.4-0.6-0.9-1.3-0.1-1.8s1.5-0.7,2.1-1.4c0.6-0.8,0.9-1.7,0.7-2.7C23.2,14.9,22.7,14.1,21.9,13.5
				L21.9,13.5z M21.7,17.7c-0.2,0.4-0.6,0.7-1,0.9c-0.1,0-0.2,0.1-0.3,0.1c-0.2,0.1-0.5,0.2-0.8,0.4c-0.7,0.4-1,1.2-0.8,2.1
				c0.3,1.2,1.8,2.1,1.2,3.5c-0.2,0.4-0.4,0.6-0.6,0.7c-0.3,0.1-0.7,0.2-1.1,0.3c-0.6,0.1-1.2,0.2-1.9,0.6c-0.5,0.3-0.8,0.8-1.1,1.2
				c-0.9,1.1-2.5,1-3.5,0.2c-0.5-0.4-0.8-0.9-0.9-1.5c-0.2-0.8-1.1-1.3-1.9-1.3c-0.8,0-1.4,0.7-1.7,1.4c-0.3,0.8-0.8,1.6-1.6,2.1
				c-0.5,0.3-1,0.5-1.4,0.5c0,0,0,0-0.1,0c-0.6,0-1.1-0.2-1.5-0.6c-0.8-0.7-0.8-2-0.1-2.8c0.6-0.7,1.7-0.8,2.5-1.3
				c1-0.6,1.7-1.8,0.6-2.7c-0.5-0.4-1.1-0.6-1.7-0.7c-0.7-0.2-1.6-0.4-2-1c-0.8-1.1-0.1-2.2,0.8-2.9c0.7-0.5,1.4-1.1,1.7-2.2
				c0.2-0.6,0-1.6,0.7-1.9c0.7-0.3,1.5-0.2,2.2-0.6c0.7-0.3,1-1,1.2-1.7c0.2-0.6,0.3-1.3,0.6-1.8c0.4-0.7,1.2-1,1.9-0.9
				c1,0.1,1.4,0.9,1.9,1.7c0.4,0.7,0.9,1.1,1.7,1.3L16,11c0.7,0.2,1.1,0.5,1.3,1c0.4,0.8,1,1.3,1.8,1.6s1.5,0.6,2,1
				C22.1,15.3,22.4,16.6,21.7,17.7L21.7,17.7z"/>
		</g>
	</g>
	<g class="st3">
		<path class="st4" d="M20.3,11c-4.4,0-7.3,3.6-9.8,6.7C8.2,20.5,6.2,23,3.7,23c-2.6,0-4.2-2.7-4.2-4.6c0-1.8,1.8-4.4,4.5-4.4
			s4.1,2.1,4.1,2.3c0.4,0.7,1.4,0.9,2.1,0.5c0.7-0.4,0.9-1.4,0.5-2.1C10.6,14.5,8.4,11,4,11s-7.5,3.9-7.5,7.4c0,3.6,3,7.6,7.2,7.6
			c3.9,0,6.6-3.2,9.1-6.4c2.3-2.9,4.6-5.6,7.5-5.6c1.8,0,2.9,0.6,3.5,1.8c0.5,1.1,0.5,2.3,0.5,2.7c0,0.2-0.1,1.4-0.7,2.5
			c-0.7,1.2-1.6,1.8-3,1.8c-2.7,0-4.2-1.8-4.8-2.5c-0.1-0.2-0.2-0.3-0.4-0.4c-0.6-0.5-1.6-0.5-2.1,0.2c-0.5,0.6-0.5,1.5,0.1,2.1
			l0.1,0.1c0.7,0.9,2.9,3.5,7.1,3.5c5.1,0,6.7-4.9,6.7-7.3c0-1.5-0.3-2.9-0.9-4C25.7,12.9,23.9,11,20.3,11L20.3,11z"/>
	</g>
	<g class="st3">
		<path class="st4" d="M12.3,3.4H2.9c-0.3,0-0.5,0.2-0.5,0.5v9.4c0,0.3,0.2,0.5,0.5,0.5h9.4c0.3,0,0.5-0.2,0.5-0.5V3.9
			C12.8,3.7,12.6,3.4,12.3,3.4L12.3,3.4z"/>
		<path class="st4" d="M26.1,3.4h-9.4c-0.3,0-0.5,0.2-0.5,0.5v9.4c0,0.3,0.2,0.5,0.5,0.5h9.4c0.3,0,0.5-0.2,0.5-0.5V3.9
			C26.6,3.7,26.3,3.4,26.1,3.4L26.1,3.4z"/>
		<path class="st4" d="M12.3,17.2H2.9c-0.3,0-0.5,0.2-0.5,0.5v9.4c0,0.3,0.2,0.5,0.5,0.5h9.4c0.3,0,0.5-0.2,0.5-0.5v-9.4
			C12.8,17.4,12.6,17.2,12.3,17.2L12.3,17.2z"/>
		<path class="st4" d="M26.1,17.2h-9.4c-0.3,0-0.5,0.2-0.5,0.5v9.4c0,0.3,0.2,0.5,0.5,0.5h9.4c0.3,0,0.5-0.2,0.5-0.5v-9.4
			C26.6,17.4,26.3,17.2,26.1,17.2L26.1,17.2z"/>
	</g>
	<g>
		<path class="st6" d="M24.8,5.2C27.5,8,29,11.6,29,15.5s-1.5,7.5-4.2,10.3C22,28.5,18.4,30,14.5,30S7,28.5,4.2,25.8
			C1.5,23,0,19.4,0,15.5S1.5,8,4.2,5.2C7,2.5,10.6,1,14.5,1S22,2.5,24.8,5.2L24.8,5.2z M23.5,24.5c1.8-1.8,3-4,3.5-6.4
			c-0.4,0.6-0.7,0.8-1-0.5c-0.2-2.1-2.1-0.7-3.3-1.5c-1.2,0.8-4-1.6-3.6,1.2c0.7,1.3,4-1.7,2.4,1c-1,1.9-3.8,6-3.4,8.1
			c0,3.1-3.2,0.6-4.3-0.4c-0.7-2.1-0.3-5.7-2.2-6.7c-2.1-0.1-3.9-0.3-4.8-2.7c-0.5-1.7,0.5-4.2,2.3-4.6c2.7-1.7,3.6,2,6.1,2
			c0.8-0.8,2.9-1.1,3.1-2c-1.6-0.3,2.1-1.4-0.2-2c-1.2,0.1-2,1.3-1.4,2.2c-2.4,0.6-2.5-3.5-4.8-2.2c-0.1,2-3.7,0.6-1.3,0.2
			c0.8-0.4-1.4-1.4-0.2-1.2c0.6,0,2.6-0.7,2-1.2c1.1-0.7,2,1.7,3.1-0.1c0.8-1.3-0.3-1.6-1.3-0.9c-0.6-0.6,1-2,2.3-2.5
			C17,4.1,17.4,4,17.7,4c0.7,0.8,1.9,0.9,2-0.1c-1.7-0.8-3.5-1.2-5.5-1.2c-2.8,0-5.4,0.9-7.6,2.5c0.6,0.3,0.9,0.6,0.4,1
			c-0.2,1.4-1.9,3.2-3.5,3c-0.8,1.4-1.3,2.9-1.6,4.5c1.3,0.4,1.6,1.3,1.3,1.6c-0.7,0.6-1.1,1.4-1.3,2.3c0.4,2.6,1.6,5,3.5,6.9
			c2.4,2.4,5.6,3.7,9,3.7C17.9,28.2,21.1,26.9,23.5,24.5L23.5,24.5z"/>
	</g>
	<g class="st3">
		<path class="st4" d="M14.5,4.1c6.3,0,11.4,5.1,11.4,11.4s-5.1,11.4-11.4,11.4S3.1,21.8,3.1,15.5S8.2,4.1,14.5,4.1 M14.5,1.7
			C6.9,1.7,0.7,7.9,0.7,15.5s6.2,13.8,13.8,13.8s13.8-6.2,13.8-13.8S22.1,1.7,14.5,1.7L14.5,1.7z"/>
		<g class="st1">
			<g>
				<g>
					<circle class="st5" cx="14.1" cy="22.2" r="1.2"/>
				</g>
			</g>
			<g>
				<path class="st5" d="M14.1,19.9c-0.7,0-1.2-0.5-1.2-1.2c0-1.8,1.1-2.8,1.7-3.1h0.1c3.2-1.4,2.6-3.5,2.6-3.6v-0.2
					c0-0.3-0.4-1.8-2.9-1.8c-0.6,0-2.5,0.1-2.6,1.7c0,0.7-0.6,1.2-1.3,1.1c-0.7,0-1.2-0.6-1.1-1.2c0.1-1.4,1.2-4,5-4
					c3.7,0,5,2.4,5.3,3.8c0.4,1.5,0.1,4.7-3.9,6.4c0,0-0.4,0.3-0.4,1C15.3,19.4,14.8,19.9,14.1,19.9z"/>
			</g>
		</g>
	</g>
</g>
</svg>
