<?xml version="1.0" encoding="utf-8"?>
<!-- Generator: Adobe Illustrator 19.0.1, SVG Export Plug-In . SVG Version: 6.00 Build 0)  -->
<svg version="1.1" id="Layer_1" xmlns="http://www.w3.org/2000/svg" xmlns:xlink="http://www.w3.org/1999/xlink" x="0px" y="0px"
	 viewBox="-3 1 21.5 29" style="enable-background:new -3 1 21.5 29;" xml:space="preserve">
<style type="text/css">
	.st0{display:none;}
	.st1{display:inline;}
	.st2{fill:#E07624;}
	.st3{display:none;opacity:0.25;}
	.st4{display:inline;fill:#58595B;}
	.st5{fill:#58595B;}
	.st6{fill:#5FA9C5;}
	.st7{opacity:0.25;}
	.st8{fill:#8BC33E;}
	.st9{display:inline;fill:#5FA9C5;}
</style>
<g>
	<g class="st0">
		<g class="st1">
			<path class="st2" d="M21.9,19.2c-0.2-0.6-1.1-1.6-1-2.9s1.1-4.2,0.9-5.4c-0.3-1.2-1.6-4.9-5-5.4C13.4,5,11,5.9,9.7,5.9
				c-1.3-0.1-1.5-1-3-1c-1.9,0-2.2,0.8-3.5,1.2c-1,0.3-4,0.3-4,0.3s-0.8-1.2-1.1-0.8c-0.2,0.5-0.6,1.5-0.6,1.5S-4.1,7.7-4.2,8
				c-0.1,0.3-0.4,0.8-0.4,0.8s-1.7,0.4-1.9,0.9c-0.2,0.4,0.7,1.4,1,1.7s3.8,0.4,4.3,0.8c0.6,0.4,2.1,0.7,3,0.9
				c1.6,0.3,2.3,3.5,2.7,7C4,20.5,3.2,20.9,3.1,22h5.3c0,0,0.1-0.8,0.2-1.7s1.7-4.5,1.7-4.5s1.2,0.9,1.9,0.9
				c-0.1,0.7,0.3,1.5,0.3,1.5s0.7,0.8,1.3,1.5c-1.2,0.5-1.2,1.4-1.2,1.4h4.5c0,0,0.4-0.9,0.4-1.7c0.6,0.9,1.8,1.2,1.8,1.2L18.7,22
				h2.7C21.4,22,22.1,19.9,21.9,19.2L21.9,19.2z M-3.2,8.9c-0.2,0-0.4-0.2-0.4-0.4c0-0.2,0.2-0.4,0.4-0.4s0.4,0.2,0.4,0.4
				C-2.9,8.8-3,8.9-3.2,8.9L-3.2,8.9z"/>
		</g>
	</g>
	<g class="st3">
		<path class="st4" d="M19.4,19.2c-0.4-0.7-1.4-2.8-2-3.8c-0.2-0.4-0.6-0.7-1.1-0.7c-0.6-0.1-1.4-0.1-2-0.2
			c-0.7-2.1-1.8-4.1-3.3-5.8C11.4,8,11.8,7.1,12,7c0,0,0,0,0.2-0.1c0,0,3.8-1.1,4.1-1.2C16.7,5.6,17,5.2,17.1,5
			C17.6,4.3,18,3.8,18,3.8c0.1-0.2,0.1-0.4-0.1-0.5s-0.4-0.1-0.5,0.1c0,0-1,1.4-1.4,1.5c-0.3,0.1-3.9,0.7-3.9,0.7
			c-1,0.2-1.5,0.7-2,1.5c0.2-0.7-0.2-1.5-1-1.7c0-0.6-0.6-1.2-1.2-1.2c-0.6,0-1.2,0.6-1.2,1.2c-0.8,0.1-1.2,0.9-1,1.7
			c-0.5-0.7-1-1.3-2-1.5c0,0-3.6-0.6-3.9-0.7C-1,4.7-1.9,3.3-1.9,3.3C-2,3.1-2.3,3.1-2.4,3.2c-0.2,0.1-0.3,0.4-0.1,0.6
			c0,0,0.4,0.5,0.9,1.3c0.1,0.2,0.5,0.6,0.8,0.7s4,1.1,4.1,1.2c0.1,0,0.1,0,0.2,0C3.6,7.2,4,8,4.4,8.6c-1.5,1.8-2.6,3.7-3.3,5.8
			c-0.5,0-1.4,0.1-2,0.2c-0.5,0-0.9,0.3-1.1,0.7c-0.6,1.1-1.6,3.1-2,3.8c-0.1,0.2,0,0.4,0.1,0.5c0.2,0.1,0.4,0.1,0.5-0.1
			c1.2-1.7,2.1-2.9,2.5-3.5c0.6,0.1,1.4,0.2,1.4,0.2c-0.5,1.9-0.7,3.9-0.6,5.9c0,0.6,0,1.2,0.3,1.6c0.3,0.5,0.7,0.7,1.2,0.8
			c1.3,0,3.2-0.2,4.9-1.3c0.6-0.4,1.1-1.1,1.4-1.9c0.3,0.8,0.8,1.4,1.4,1.9c1.7,1.2,3.6,1.4,4.9,1.3c0.5,0,0.9-0.3,1.2-0.8
			c0.3-0.5,0.3-1,0.3-1.6c0-2-0.2-4-0.6-5.9c0,0,0.7-0.1,1.4-0.2c0.4,0.6,1.3,1.8,2.5,3.5c0.1,0.2,0.4,0.2,0.5,0.1
			C19.5,19.6,19.5,19.3,19.4,19.2L19.4,19.2z"/>
	</g>
	<g class="st3">
		<g class="st1">
			<path class="st5" d="M19.7,5.5c-2.1-2.1-6.1-2.1-9.8-0.2c-0.1,1.8,0.6,3.8,2,5.3c1.2,1.2,2.6,1.8,4.1,2
				C18.9,9.2,20.4,6.2,19.7,5.5L19.7,5.5z M15.7,6.9c-0.3,0.3-0.8,0.3-1.2,0c-0.3-0.3-0.3-0.8,0-1.2c0.3-0.3,0.8-0.3,1.2,0
				C16,6,16,6.5,15.7,6.9L15.7,6.9z"/>
			<path class="st5" d="M8.5,6.1C8.2,6.3,7.9,6.5,7.7,6.7L7,6.4C6.5,6.1,5.8,6.2,5.3,6.6l-4.5,4.5c-0.3,0.3-0.5,0.8-0.4,1.2
				c0.1,0.5,0.4,0.9,0.8,1.1l1,0.5c-1,2.4-1.6,4.7-1.7,6.2L-4,21.8c-0.2,0.1-0.3,0.3-0.4,0.5c0,0.2,0.1,0.4,0.3,0.5l2,0.9
				c0.4,0.2,0.7,0.5,0.9,0.9l0.9,1.9c0.1,0.2,0.3,0.3,0.5,0.3s0.4-0.2,0.5-0.4L2.2,22c2.1-0.3,5.7-2,8.9-4.4l0.4,1.1
				c0.1,0.2,0.2,0.3,0.4,0.4c0.2,0,0.4,0,0.6-0.2l0.4-0.4c0.3-0.3,0.5-0.7,0.5-1.1l0.1-1.9c0.6-0.6,1.1-1.1,1.6-1.7
				c-1.5-0.3-2.9-1.1-4-2.3C9.4,10.1,8.6,8.1,8.5,6.1L8.5,6.1z"/>
		</g>
	</g>
	<g class="st3">
		<g class="st1">
			<path class="st5" d="M11.7,15.4H3.8l-0.6,4.1c-0.2,1.3,0.2,2.7,1.1,3.7s2.2,1.6,3.5,1.6c1.4,0,2.6-0.6,3.5-1.6
				c0.9-1,1.3-2.4,1.1-3.7L11.7,15.4z"/>
			<path class="st5" d="M19.2,10.6c-1.4-5-6-8.6-11.5-8.6c-5.4,0-10,3.6-11.5,8.6c-0.2,0.8-0.1,1.6,0.4,2.3c0.5,0.6,1.2,1,2,1h18.1
				c0.8,0,1.6-0.4,2-1C19.3,12.2,19.5,11.3,19.2,10.6L19.2,10.6z M1.9,12.1c-0.9,0-1.7-0.8-1.7-1.7S1,8.7,1.9,8.7s1.7,0.8,1.7,1.7
				C3.6,11.3,2.9,12.1,1.9,12.1L1.9,12.1z M4.9,7.7C4,7.7,3.2,7,3.2,6c0-0.9,0.8-1.7,1.7-1.7S6.6,5.1,6.6,6C6.6,7,5.9,7.7,4.9,7.7
				L4.9,7.7z M8.1,11.4c-0.9,0-1.6-0.7-1.6-1.6c0-0.9,0.7-1.6,1.6-1.6c0.9,0,1.6,0.7,1.6,1.6C9.7,10.6,9,11.4,8.1,11.4L8.1,11.4z
				 M10,6c0-0.7,0.6-1.3,1.3-1.3s1.3,0.6,1.3,1.3S12,7.3,11.3,7.3S10,6.7,10,6L10,6z M14,12.5c-1.2,0-2.1-1-2.1-2.1
				c0-1.2,1-2.1,2.1-2.1c1.2,0,2.1,1,2.1,2.1C16.2,11.6,15.2,12.5,14,12.5L14,12.5z"/>
		</g>
	</g>
	<g class="st0">
		<g class="st1">
			<path class="st6" d="M14.7,6.6c-0.2-0.9-0.2-1.8-0.3-2.6c-0.2-1.2-0.6-2.4-1.5-3.2c-1.1-1-2.7-1.1-3.9-0.3
				C8.9,0.6,8.9,0.8,8.8,0.9c0,0,0,0.1-0.1,0.1c0,0.1-0.1,0.2-0.1,0.2l0,0l0,0c0,0-0.1,0.1-0.2,0.1C8.1,1.5,7.7,1.6,7.5,1.9
				C7.3,2,7.2,2.3,7.1,2.5C7,2.6,7,2.7,7,2.7s0.1,0,0.2,0c0.1,0,0.2,0,0.2-0.1c1.3-0.6,2.7,0.3,2.8,1.7c0,0.8-0.3,1.7-0.8,2.4
				C9.1,7.2,8.7,8.1,8.2,8.5C7.8,8.8,7.3,8.8,6.8,9.1c-1,0.6-1.8,2-2.4,3.1c-0.6,1-1.2,2.1-1.8,3.1c-0.6,0.9-1.4,1.7-2,2.5
				c-0.1,0.1-0.1,0.2,0,0.3c0,0.1,0.1,0.2,0.1,0.3c0,0.1,0.1,0.2,0.2,0.3c0.5,0.4-1.3,1.8-1.9,2.2c-0.1,0-0.1,0.1,0,0.1
				c1.5,0.1,3.1-0.3,4.3-0.8c0.1-0.1,0.3-0.1,0.4-0.2c0.2-0.1,0.4-0.3,0.6-0.4s2.3-0.2,2,0.3c-0.6,1.1,0,2.3,0.2,3.4
				c0.1,0.5,0,0.8-0.1,1.2c0,0.1-0.1,0.2-0.2,0.2c-0.4,0.1-0.7,0.2-0.5,0.3c0.2,0.1,0.4,0.3,0.5,0.4s0.1,0.2,0.1,0.4
				c0.1,0.4,0.2,0.8,0.3,1.2c0,0.1,0.1,0.1,0.2,0c0.5-0.8,0.6-1.2,1.5-1c0.6,0.1,1.3,0.3,1.9,0.5c0.1,0,0.1,0,0-0.1
				c-0.3-0.2-0.6-0.5-0.9-0.7c-0.1-0.1-0.1-0.1,0-0.1c0.6,0.1,0.7-0.4,1-0.6c0.1-0.1,0.1-0.1,0,0c-0.5,0.1-0.9,0.2-1.4,0.1
				c-1.4-0.1-1.8-1.3-1.6-2.6c0.1-0.7,0.7-3,1.5-3.2c0.4-0.1,0.8,0.1,0.9,0.5c0.2,0.3,0.1,0.7,0.1,1.1s0,0.8,0.1,1.1
				c0.1,0.3,0.4,0.5,0.7,0.8c0.2,0.2,0.4,0.6,0.3,0.9c-0.1,0.3-0.4,0.5-0.7,0.5c-0.2,0-0.5,0-0.7,0c-0.1,0-0.1,0-0.1,0.1
				c0.6,0.5,2,0,1.7,1.1c-0.1,0.2-0.1,0.4-0.2,0.7c0,0.1,0,0.2,0.1,0.1c0.4-0.2,0.6-0.5,0.6-1c0-0.1,2.3,0.6,2.4,0.7
				c0.2,0.1,0.4,0.1,0.6,0.1c0.1,0,0.2,0,0.1-0.1c-0.1-0.3-0.2-0.5-0.6-0.5c-0.3-0.1-0.6-0.2-0.9-0.3c-0.1,0-0.1-0.1,0-0.1
				c0.6,0,1.8,0.2,1.8-0.4c0-0.1-0.1-0.2-0.2-0.2c-0.2,0-0.4,0.1-0.6,0.1c-0.8,0-1.6,0.1-2.2-0.4c-0.6-0.5-0.7-1.6-0.6-2.3
				c0.2-3.5,3.8-5.5,4.8-8.8c0.5-1.6,0.1-3-0.7-4.4C15.2,7.8,14.8,7.4,14.7,6.6L14.7,6.6z"/>
		</g>
	</g>
	<g class="st7">
		<g>
			<path class="st5" d="M12.5,1.5c-3.9,6.5-7,3.3-11.6,8c-4,4.1-2.6,9.1,0.8,10.8c3.3-1.7,6.7-5.5,9.2-11c0,0,2.3,6.9-4.7,13.6
				c3.4,3.9,9.1,1.2,10.7-5.1C18.7,11,14.2,4,12.5,1.5L12.5,1.5z M-1.9,24c0,0.1,0.1,1.3,1.7,1.3c1.2,0,7.4-3.4,10.5-12.1
				C5.6,21.7-1.4,23.8-1.9,24L-1.9,24z"/>
		</g>
	</g>
	<g class="st0">
		<g class="st1">
			<path class="st8" d="M21.2,16.8c-0.7-0.4-1.3-0.8-2-1.1c0,0-0.1-0.1-0.2-0.1c0.3,0,0.6-0.1,0.9-0.1c0.7,0,1.3-0.1,2-0.3
				c0.3-0.1,0.5-0.2,0.7-0.5c0.1-0.2,0.1-0.2,0-0.3c0.1-0.2,0.2-0.6-0.1-0.9c0,0-0.1,0.5-0.3,0.7c-0.1-0.1-0.2-0.1-0.4-0.2
				c-0.1,0.1-0.4,0.1-0.6,0c0,0,0,0,0,0.1l0,0c-0.1,0-0.2,0-0.3,0c-0.1,0-0.2,0-0.2,0c-0.1,0.1-0.2,0.1-0.3,0
				c-0.1,0.1-0.3,0.1-0.5,0.1c-0.4-0.1-0.8-0.1-1.1-0.2c-0.1,0-0.2,0-0.2,0l0,0c0.1,0,0.1,0,0.2,0c0.5,0,1,0,1.5-0.1
				c0.2,0,0.4-0.1,0.7-0.1c0.2,0,0.3-0.1,0.5-0.1c0,0.2-0.1,0.3-0.1,0.3c0.3,0,0.4-0.2,0.5-0.4l0,0c-0.1,0.2-0.2,0.4-0.2,0.4
				c0.4,0,0.6-0.3,0.7-0.6c0,0,0.1,0,0.1-0.1c0.3-0.1,0.4-0.2,0.4-0.6c0-0.3-0.2-0.5-0.5-0.6c-0.2,0-0.5-0.1-0.7-0.1s-0.3,0-0.5,0
				s-0.4-0.1-0.6-0.2c-0.1-0.1-0.3-0.1-0.4-0.1c-0.4,0-0.8,0.1-1.1,0c-0.1,0-0.2,0-0.3,0c-0.3,0.1-0.7,0.1-1,0.1s-0.6,0-0.9,0.1
				c-0.5,0.1-0.9,0.4-1.2,0.9l-0.1,0.1c-0.5,0.3-0.7,0.7-1,1.2c-0.2,0.4-0.1,0.8,0.2,1.2c0.3,0.4,0.7,0.8,1.1,1.1
				c0.6,0.5,1.3,1,2,1.4c0.7,0.5,1.5,1,2.3,1.5c0.5,0.3,0.9,0.7,1.3,1.3c-0.2,0.1-0.4,0.2-0.6,0.2c-0.3,0.1-0.6,0.1-0.9,0.2
				c-0.2,0-0.4,0.1-0.6,0.1c-0.4,0-0.8,0-1.2,0c-0.5,0-0.9-0.1-1.4-0.2c-0.8-0.1-1.5-0.4-2.3-0.6c-0.3-0.1-0.5-0.3-0.8-0.5
				c-0.1-0.1-0.1-0.2-0.1-0.3c-0.2-1.3-0.7-2.4-1.5-3.5c-0.4-0.5-0.8-0.9-1.3-1.2c-0.9-0.7-2-1.1-3-1.5C6.5,13,5.3,12.7,4,12.5
				c-1-0.2-2-0.2-3-0.5c-0.6-0.2-1.2-0.4-1.9-0.7c0.1-0.1,0.2-0.1,0.3-0.2c0.6-0.3,1.2-0.6,1.7-1c0.4-0.1,0.7-0.4,1-0.8
				c0.3-0.5,0.3-1,0.1-1.5C1.9,7.3,1.5,6.9,1,6.6C0.1,6.2-0.9,6.1-1.9,6.1C-3.2,6-4.5,6-5.9,6c-0.9,0-1.7-0.3-2.4-0.8
				c-0.5-0.4-0.7-1-0.5-1.6C-8.7,3.3-8.6,3-8.5,2.8c0,0,0-0.1,0-0.2c-0.5,0.6-0.9,1.2-0.8,2C-9.2,5-9,5.3-8.7,5.6
				c0.6,0.6,1.3,1.1,2.2,1.3c0.7,0.2,1.4,0.2,2.1,0.3c1,0.1,2.1,0.2,3.1,0.4C-1,7.7-0.6,7.9-0.2,8c0,0,0.1,0.1,0.2,0.1
				c-0.1,0-0.1,0.1-0.2,0.1C-0.8,8.5-1.4,8.7-2.1,9c-0.8,0.4-1.5,1-1.8,1.9c-0.3,1.1-0.2,1.8,0.8,2.7c0.8,0.7,1.8,1.1,2.9,1.4
				c1,0.3,2.1,0.5,3.1,0.7c1,0.1,2,0.4,2.9,0.7c0.7,0.2,1.4,0.5,2.1,0.9c0.4,0.3,0.8,0.5,1,0.9c0.3,0.5,0.4,1,0.5,1.5
				c0.1,0.4,0.1,0.8,0.2,1.2c0.2,0.9,0.7,1.5,1.4,2.1c0.8,0.7,1.7,1.1,2.7,1.4c1.3,0.4,2.6,0.6,3.9,0.7c1.6,0,3.1-0.2,4.5-0.8
				c0.9-0.4,1.6-0.9,2.1-1.7c0.1-0.2,0.2-0.4,0.3-0.7c0.2-0.9-0.1-1.8-0.6-2.6C23.4,18.2,22.3,17.4,21.2,16.8L21.2,16.8z"/>
		</g>
	</g>
	<g class="st3">
		<g class="st1">
			<path class="st5" d="M16.5,12.4c-0.5-0.4-1.2-0.6-1.7-0.8s-1-0.4-1.4-0.8c-0.5-0.4-0.7-0.9-1-1.4c-0.5-0.6-1.8-0.7-2.5-1
				c-0.8-0.4-1.5-1-2-1.8l0,0C7.6,6.1,7.3,5.7,6.6,5.7C5.7,5.8,5.5,6.5,5.3,7.2C5.1,8,4.9,8.7,4.4,9.4C4,9.8,3.6,10.1,3,10.3
				c-0.4,0.2-0.8,0.2-1.2,0.3c-0.4,0.1-0.5,0-0.5,0.4c0,0.3-0.1,0.6-0.2,1c-0.4,1.3-1.3,2.1-2,2.6c-0.5,0.4-1.2,1.3-0.5,1.8
				c0.8,0.6,2.1,0.6,3,1.1c0.3,0.1,0.5,0.3,0.7,0.5c0.4,0.4,0.6,0.8,0.6,1.3c0,0.4,0,0.8-0.2,1.2c-0.3,0.6-0.7,1-1.4,1.4
				c-0.4,0.2-0.9,0.4-1.3,0.5c-0.8,0.3-1.7,0.9-1.2,1.9c0.3,0.5,0.7,0.7,1.1,0.7l0,0c0.3,0,0.7-0.1,1-0.4C2,24,2.1,22.6,3,21.8
				c0.3-0.3,0.6-0.4,1-0.6C4.3,21.1,4.6,21,4.9,21c0.8,0,1.7,0.4,2.1,1.1c0.4,0.6,0.5,1.4,1.1,1.9c1,0.8,1.9,0.4,2.7-0.5
				c0.5-0.6,1.1-1,1.8-1.3c0.6-0.2,1.3-0.1,1.8-0.3c1-0.4,0.7-1.1,0.2-1.8c-0.7-0.9-1.2-2.2-0.6-3.4c0.4-0.8,1.2-1.3,2-1.6
				c0.7-0.3,1.3-0.9,1.2-1.7C17,13,16.8,12.6,16.5,12.4L16.5,12.4z M3.3,15.5c-0.5,0-0.9-0.4-0.9-0.9s0.4-0.9,0.9-0.9
				s0.9,0.4,0.9,0.9C4.2,15.1,3.8,15.5,3.3,15.5L3.3,15.5z M9.4,14.2c-0.7,0-1.3-0.6-1.3-1.3s0.6-1.3,1.3-1.3s1.3,0.6,1.3,1.3
				S10.1,14.2,9.4,14.2L9.4,14.2z"/>
			<path class="st5" d="M17.8,10.7c-0.7-0.5-1.5-0.9-2.4-1.2c-0.7-0.2-1-0.8-1.4-1.3c-0.4-0.6-1-1-1.7-1.2s-1.6-0.3-2.1-0.7
				c-0.5-0.4-0.7-1-1-1.5C8.7,4.2,8,3.8,7.3,3.6C5.7,3.3,4.2,4.2,3.6,5.7C3.3,6.4,3.3,7.2,2.8,7.8c-0.4,0.5-1,0.6-1.5,0.7
				C0.6,8.6,0,8.8-0.4,9.4c-0.6,0.7-0.3,1.7-0.8,2.5c-0.4,0.6-1,1.1-1.5,1.6c-1.2,1.1-1.4,2.9-0.4,4.2c0.6,0.7,1.4,1,2.3,1.3
				c0.4,0.1,1.5,0.1,1.5,0.7c0,0.5-1,0.7-1.3,0.8c-0.6,0.2-1.3,0.4-1.8,1c-0.9,0.9-1.2,2.3-0.8,3.5c0.3,1,1.2,1.8,2.2,2.1
				c0.8,0.2,1.7,0.1,2.5-0.2c1.2-0.5,2.2-1.6,2.6-2.8c0.1-0.4,0.4-0.9,0.9-0.8c0.4,0.1,0.4,0.5,0.5,0.9c0.2,0.4,0.4,0.8,0.7,1.1
				c0.6,0.6,1.3,1.1,2.1,1.3c0.8,0.3,1.8,0.2,2.6-0.2c0.9-0.4,1.2-1.3,1.9-1.8c0.5-0.4,1.2-0.4,1.8-0.5c1.5-0.3,2.7-1.6,2.6-3.2
				c0-0.7-0.3-1.3-0.7-1.8c-0.4-0.6-0.9-1.3-0.1-1.8s1.5-0.7,2.1-1.4c0.6-0.8,0.9-1.7,0.7-2.7C19.1,12.1,18.5,11.3,17.8,10.7
				L17.8,10.7z M17.6,14.8c-0.2,0.4-0.6,0.7-1,0.9c-0.1,0-0.2,0.1-0.3,0.1c-0.2,0.1-0.5,0.2-0.8,0.4c-0.7,0.4-1,1.2-0.8,2.1
				c0.3,1.2,1.8,2.1,1.2,3.5c-0.2,0.4-0.4,0.6-0.6,0.7c-0.3,0.1-0.7,0.2-1.1,0.3c-0.6,0.1-1.2,0.2-1.9,0.6c-0.5,0.3-0.8,0.8-1.1,1.2
				c-0.9,1.1-2.5,1-3.5,0.2c-0.5-0.4-0.8-0.9-0.9-1.5C6.6,22.5,5.7,22,4.9,22s-1.4,0.7-1.7,1.4c-0.3,0.8-0.8,1.6-1.6,2.1
				c-0.5,0.3-1,0.5-1.4,0.5c0,0,0,0-0.1,0c-0.6,0-1.1-0.2-1.5-0.6c-0.8-0.7-0.8-2-0.1-2.8c0.5-0.8,1.5-0.9,2.4-1.3
				c1-0.6,1.7-1.8,0.6-2.7C1,18.2,0.4,18-0.2,17.9c-0.7-0.2-1.6-0.4-2-1C-3,15.8-2.3,14.7-1.4,14c0.7-0.5,1.4-1.1,1.7-2.2
				c0.2-0.6,0-1.6,0.7-1.9c0.7-0.3,1.5-0.2,2.2-0.6c0.7-0.3,1-1,1.2-1.7C4.6,7,4.7,6.3,5,5.8c0.4-0.7,1.2-1,1.9-0.9
				c1,0.1,1.4,0.9,1.9,1.7c0.4,0.7,0.9,1.1,1.7,1.3l1.4,0.4c0.7,0.2,1.1,0.5,1.3,1c0.4,0.8,1,1.3,1.8,1.6s1.5,0.6,2,1
				C17.9,12.5,18.2,13.8,17.6,14.8L17.6,14.8z"/>
		</g>
	</g>
	<g class="st3">
		<path class="st4" d="M16.1,8.2c-4.4,0-7.3,3.6-9.8,6.7c-2.2,2.7-4.2,5.2-6.8,5.2s-4.2-2.7-4.2-4.6c0-1.8,1.8-4.4,4.5-4.4
			s4.1,2.1,4.1,2.3c0.4,0.7,1.4,0.9,2.1,0.5s0.9-1.4,0.5-2.1c-0.1-0.1-2.3-3.7-6.7-3.7s-7.5,3.9-7.5,7.4c0,3.6,3,7.6,7.2,7.6
			c3.9,0,6.6-3.2,9.1-6.4c2.3-2.9,4.6-5.6,7.5-5.6c1.8,0,2.9,0.6,3.5,1.8c0.5,1.1,0.5,2.3,0.5,2.7c0,0.2-0.1,1.4-0.7,2.5
			c-0.7,1.2-1.6,1.8-3,1.8c-2.7,0-4.2-1.8-4.8-2.5c-0.1-0.2-0.2-0.3-0.4-0.4c-0.6-0.5-1.6-0.5-2.1,0.2c-0.5,0.6-0.5,1.5,0.1,2.1
			l0.1,0.1c0.7,0.9,2.9,3.5,7.1,3.5c5.1,0,6.7-4.9,6.7-7.3c0-1.5-0.3-2.9-0.9-4C21.5,10.1,19.8,8.2,16.1,8.2L16.1,8.2z"/>
	</g>
	<g class="st3">
		<path class="st4" d="M8.2,0.6h-9.4c-0.3,0-0.5,0.2-0.5,0.5v9.4c0,0.3,0.2,0.5,0.5,0.5h9.4c0.3,0,0.5-0.2,0.5-0.5V1.1
			C8.7,0.8,8.4,0.6,8.2,0.6L8.2,0.6z"/>
		<path class="st4" d="M21.9,0.6h-9.4c-0.3,0-0.5,0.2-0.5,0.5v9.4c0,0.3,0.2,0.5,0.5,0.5h9.4c0.3,0,0.5-0.2,0.5-0.5V1.1
			C22.4,0.8,22.2,0.6,21.9,0.6L21.9,0.6z"/>
		<path class="st4" d="M8.2,14.3h-9.4c-0.3,0-0.5,0.2-0.5,0.5v9.4c0,0.3,0.2,0.5,0.5,0.5h9.4c0.3,0,0.5-0.2,0.5-0.5v-9.4
			C8.7,14.6,8.4,14.3,8.2,14.3L8.2,14.3z"/>
		<path class="st4" d="M21.9,14.3h-9.4c-0.3,0-0.5,0.2-0.5,0.5v9.4c0,0.3,0.2,0.5,0.5,0.5h9.4c0.3,0,0.5-0.2,0.5-0.5v-9.4
			C22.4,14.6,22.2,14.3,21.9,14.3L21.9,14.3z"/>
	</g>
	<g class="st0">
		<path class="st9" d="M20.6,2.4c2.7,2.7,4.2,6.4,4.2,10.3s-1.5,7.5-4.2,10.3c-2.7,2.7-6.4,4.2-10.3,4.2S2.8,25.7,0,23
			c-2.7-2.7-4.2-6.4-4.2-10.3s1.6-7.5,4.3-10.3c2.7-2.7,6.4-4.2,10.3-4.2S17.9-0.3,20.6,2.4L20.6,2.4z M19.3,21.6
			c1.8-1.8,3-4,3.5-6.4c-0.4,0.6-0.7,0.8-1-0.5c-0.2-2.1-2.1-0.7-3.3-1.5c-1.2,0.8-4-1.6-3.6,1.2c0.7,1.3,4-1.7,2.4,1
			c-1,1.9-3.8,6-3.4,8.1c0,3.1-3.2,0.6-4.3-0.4c-0.7-2.1-0.3-5.7-2.2-6.7c-2.1-0.1-3.9-0.3-4.8-2.7C2.1,12.1,3.2,9.6,5,9.2
			c2.7-1.7,3.6,2,6.1,2c0.8-0.8,2.9-1.1,3.1-2c-1.6-0.3,2.1-1.4-0.2-2c-1.2,0.1-2,1.3-1.4,2.2C10.2,10,10.2,6,7.9,7.3
			c-0.1,2-3.7,0.6-1.3,0.2c0.8-0.4-1.4-1.4-0.2-1.2c0.6,0,2.6-0.7,2-1.2c1.1-0.7,2,1.7,3.1-0.1c0.8-1.3-0.3-1.6-1.3-0.9
			c-0.6-0.6,1-2,2.3-2.5c0.5-0.2,0.9-0.3,1.2-0.3c0.7,0.8,1.9,0.9,2-0.1C14.1,0.4,12.3,0,10.3,0C7.6,0,5,0.9,2.8,2.5
			c0.6,0.3,0.9,0.6,0.4,1C2.7,4.8,0.9,6.6-0.6,6.3c-0.9,1.4-1.4,3-1.6,4.6c1.3,0.4,1.6,1.3,1.3,1.6C-1.6,13-2,13.8-2.2,14.7
			c0.4,2.6,1.6,5,3.5,6.9c2.4,2.4,5.6,3.7,9,3.7C13.7,25.4,16.9,24,19.3,21.6L19.3,21.6z"/>
	</g>
	<g class="st3">
		<path class="st4" d="M10.3,1.3c6.3,0,11.4,5.1,11.4,11.4S16.6,24,10.3,24C4.1,24-1,18.9-1,12.7S4.1,1.3,10.3,1.3 M10.3-1.1
			C2.8-1.1-3.4,5.1-3.4,12.7s6.2,13.8,13.8,13.8s13.8-6.2,13.8-13.8S17.9-1.1,10.3-1.1L10.3-1.1z"/>
		<g class="st1">
			<g>
				<g>
					<circle class="st5" cx="10" cy="19.4" r="1.2"/>
				</g>
			</g>
			<g>
				<path class="st5" d="M10,17.1c-0.7,0-1.2-0.5-1.2-1.2c0-1.8,1.1-2.8,1.7-3.1h0.1c3.2-1.4,2.6-3.5,2.6-3.6V9
					c0-0.3-0.4-1.8-2.9-1.8c-0.6,0-2.5,0.1-2.6,1.7c0,0.7-0.6,1.2-1.3,1.1c-0.8,0-1.3-0.6-1.3-1.2c0.1-1.4,1.2-4,5-4
					c3.7,0,5,2.4,5.3,3.8c0.4,1.5,0.1,4.7-3.9,6.4c0,0-0.4,0.3-0.4,1C11.2,16.6,10.6,17.1,10,17.1z"/>
			</g>
		</g>
	</g>
</g>
</svg>
