<?xml version="1.0" encoding="utf-8"?>
<!-- Generator: Adobe Illustrator 19.0.1, SVG Export Plug-In . SVG Version: 6.00 Build 0)  -->
<svg version="1.1" id="Layer_1" xmlns="http://www.w3.org/2000/svg" xmlns:xlink="http://www.w3.org/1999/xlink" x="0px" y="0px"
	 viewBox="3 1 35.2 29" style="enable-background:new 3 1 35.2 29;" xml:space="preserve">
<style type="text/css">
	.st0{display:none;}
	.st1{display:inline;}
	.st2{fill:#E07624;}
	.st3{display:none;opacity:0.25;}
	.st4{display:inline;fill:#58595B;}
	.st5{fill:#58595B;}
	.st6{fill:#5FA9C5;}
	.st7{fill:#8BC33E;}
	.st8{display:inline;fill:#5FA9C5;}
</style>
<g>
	<g class="st0">
		<g class="st1">
			<path class="st2" d="M34.7,19.2c-0.2-0.6-1.1-1.6-1-2.9s1.1-4.2,0.9-5.4c-0.3-1.2-1.6-4.9-5-5.4s-5.8,0.4-7.1,0.3s-1.5-1-3-1
				c-1.9,0-2.2,0.8-3.5,1.2c-1,0.3-4,0.3-4,0.3s-0.8-1.1-1-0.7c-0.3,0.5-0.6,1.5-0.6,1.5S8.8,7.7,8.6,8C8.5,8.3,8.3,8.7,8.3,8.7
				S6.6,9.2,6.4,9.6c-0.2,0.4,0.7,1.4,1,1.7s3.8,0.4,4.3,0.8c0.6,0.4,2.1,0.7,3,0.9c1.6,0.3,2.3,3.5,2.7,7c-0.4,0.5-1.3,0.8-1.4,2
				h5.3c0,0,0.1-0.8,0.2-1.7c0.1-0.9,1.7-4.5,1.7-4.5s1.2,0.9,1.9,0.9c-0.1,0.7,0.3,1.5,0.3,1.5s0.7,0.8,1.3,1.5
				c-1.2,0.5-1.2,1.4-1.2,1.4H30c0,0,0.4-0.9,0.4-1.7c0.6,0.9,1.8,1.2,1.8,1.2L31.5,22h2.7C34.2,22,34.9,19.9,34.7,19.2L34.7,19.2z
				 M9.6,8.9c-0.2,0-0.4-0.2-0.4-0.4c0-0.2,0.2-0.4,0.4-0.4C9.8,8.2,10,8.4,10,8.6C10,8.8,9.8,8.9,9.6,8.9L9.6,8.9z"/>
		</g>
	</g>
	<g class="st3">
		<path class="st4" d="M32.2,19.2c-0.4-0.7-1.4-2.8-2-3.8c-0.2-0.4-0.6-0.7-1.1-0.7c-0.6-0.1-1.4-0.1-2-0.2
			c-0.7-2.1-1.8-4.1-3.3-5.8c0.5-0.7,0.9-1.6,1-1.7c0,0,0.1-0.1,0.2-0.1c0,0,3.8-1.1,4.1-1.2c0.4-0.1,0.7-0.5,0.8-0.7
			c0.5-0.8,0.9-1.3,0.9-1.3c0.1-0.2,0.1-0.4-0.1-0.5s-0.4-0.1-0.5,0.1c0,0-1,1.4-1.4,1.5c-0.3,0.1-3.9,0.7-3.9,0.7
			c-1,0.2-1.5,0.7-2,1.5c0.2-0.7-0.2-1.5-1-1.7c0-0.6-0.6-1.2-1.2-1.2s-1.2,0.6-1.2,1.2c-0.8,0.1-1.2,0.9-1,1.7
			c-0.5-0.7-1-1.3-2-1.5c0,0-3.6-0.6-3.9-0.7c-0.7-0.1-1.7-1.5-1.7-1.5c-0.1-0.2-0.3-0.2-0.5-0.1c-0.2,0.1-0.2,0.4-0.1,0.6
			c0,0,0.4,0.5,0.9,1.3c0.1,0.2,0.5,0.6,0.8,0.7c0.3,0.1,4,1.1,4.1,1.2c0.1,0,0.2,0,0.2,0c0.1,0.1,0.5,1,0.9,1.6
			c-1.5,1.8-2.6,3.7-3.3,5.8c-0.5,0-1.4,0.1-2,0.2c-0.5,0-0.9,0.3-1.1,0.7c-0.6,1.1-1.6,3.1-2,3.8c-0.1,0.2,0,0.4,0.1,0.5
			c0.2,0.1,0.4,0.1,0.5-0.1c1.2-1.7,2.1-2.9,2.5-3.5c0.6,0.1,1.4,0.2,1.4,0.2c-0.5,1.9-0.7,3.9-0.6,5.9c0,0.6,0,1.2,0.3,1.6
			c0.3,0.5,0.7,0.7,1.2,0.8c1.3,0,3.2-0.2,4.9-1.3c0.6-0.4,1.1-1.1,1.4-1.9c0.3,0.8,0.8,1.4,1.4,1.9c1.7,1.2,3.6,1.4,4.9,1.3
			c0.5,0,0.9-0.3,1.2-0.8c0.3-0.5,0.3-1,0.3-1.6c0-2-0.2-4-0.6-5.9c0,0,0.7-0.1,1.4-0.2c0.4,0.6,1.3,1.8,2.5,3.5
			c0.1,0.2,0.4,0.2,0.5,0.1C32.3,19.6,32.3,19.3,32.2,19.2L32.2,19.2z"/>
	</g>
	<g class="st3">
		<g class="st1">
			<path class="st5" d="M32.5,5.5c-2.1-2.1-6.1-2.1-9.8-0.2c-0.1,1.8,0.6,3.8,2,5.3c1.2,1.2,2.6,1.8,4.1,2
				C31.7,9.2,33.2,6.2,32.5,5.5L32.5,5.5z M28.5,6.9c-0.3,0.3-0.8,0.3-1.2,0C27,6.5,27,6,27.4,5.7c0.3-0.3,0.8-0.3,1.2,0
				C28.9,6,28.9,6.5,28.5,6.9L28.5,6.9z"/>
			<path class="st5" d="M21.3,6.1c-0.3,0.2-0.6,0.4-0.8,0.6l-0.6-0.3c-0.6-0.3-1.2-0.2-1.7,0.3l-4.5,4.5c-0.3,0.3-0.5,0.8-0.4,1.2
				c0.1,0.5,0.4,0.9,0.8,1.1l1,0.5c-1,2.4-1.6,4.7-1.7,6.2l-4.5,1.5c-0.2,0.1-0.3,0.3-0.4,0.5c0,0.2,0.1,0.4,0.3,0.5l2,0.9
				c0.4,0.2,0.7,0.5,0.9,0.9l0.9,1.9c0.1,0.2,0.3,0.3,0.5,0.3s0.4-0.2,0.5-0.4L15,22c2.1-0.3,5.7-2,8.9-4.4l0.4,1.1
				c0.1,0.2,0.2,0.3,0.4,0.4c0.2,0,0.4,0,0.6-0.2l0.4-0.4c0.3-0.3,0.5-0.7,0.5-1.1l0.1-1.9c0.6-0.6,1.1-1.1,1.6-1.7
				c-1.5-0.3-2.9-1.1-4-2.3C22.2,10.1,21.4,8.1,21.3,6.1L21.3,6.1z"/>
		</g>
	</g>
	<g class="st3">
		<g class="st1">
			<path class="st5" d="M24.5,15.4h-7.9L16,19.5c-0.2,1.3,0.2,2.7,1.1,3.7s2.2,1.6,3.5,1.6c1.4,0,2.6-0.6,3.5-1.6s1.3-2.4,1.1-3.7
				L24.5,15.4z"/>
			<path class="st5" d="M32.1,10.6C30.6,5.6,26,2,20.6,2C15.1,2,10.5,5.6,9,10.6c-0.2,0.8-0.1,1.6,0.4,2.3c0.5,0.6,1.2,1,2,1h18.1
				c0.8,0,1.6-0.4,2-1C32.2,12.2,32.3,11.3,32.1,10.6L32.1,10.6z M14.8,12.1c-0.9,0-1.7-0.8-1.7-1.7s0.8-1.7,1.7-1.7
				s1.7,0.8,1.7,1.7S15.7,12.1,14.8,12.1L14.8,12.1z M17.8,7.7c-0.9,0-1.7-0.8-1.7-1.7s0.8-1.7,1.7-1.7c0.9,0,1.7,0.8,1.7,1.7
				C19.5,7,18.7,7.7,17.8,7.7L17.8,7.7z M20.9,11.4c-0.9,0-1.6-0.7-1.6-1.6c0-0.9,0.7-1.6,1.6-1.6s1.6,0.7,1.6,1.6
				C22.5,10.6,21.8,11.4,20.9,11.4L20.9,11.4z M22.9,6c0-0.7,0.6-1.3,1.3-1.3c0.7,0,1.3,0.6,1.3,1.3s-0.6,1.3-1.3,1.3
				C23.4,7.3,22.9,6.7,22.9,6L22.9,6z M26.8,12.5c-1.2,0-2.1-1-2.1-2.1c0-1.2,1-2.1,2.1-2.1c1.2,0,2.1,1,2.1,2.1
				C29,11.6,28,12.5,26.8,12.5L26.8,12.5z"/>
		</g>
	</g>
	<g class="st0">
		<g class="st1">
			<path class="st6" d="M27.5,6.6c-0.2-0.9-0.2-1.8-0.3-2.6c-0.2-1.2-0.6-2.4-1.5-3.2c-1.1-1-2.7-1.1-3.9-0.3
				c-0.1,0.1-0.1,0.3-0.2,0.4c0,0,0,0.1-0.1,0.1c0,0.1-0.1,0.2-0.1,0.2l0,0l0,0c0,0-0.1,0.1-0.2,0.1c-0.3,0.2-0.7,0.3-0.9,0.6
				C20.1,2,20,2.3,19.9,2.5c-0.1,0.1-0.1,0.2-0.1,0.2s0.1,0,0.2,0s0.2,0,0.2-0.1C21.5,2,22.9,2.9,23,4.3c0,0.8-0.3,1.7-0.8,2.4
				c-0.3,0.5-0.7,1.4-1.2,1.8c-0.4,0.3-0.9,0.3-1.4,0.6c-1.1,0.7-1.8,2.1-2.4,3.1c-0.6,1-1.2,2.1-1.8,3.1c-0.6,0.9-1.4,1.7-2,2.5
				c-0.1,0.1-0.1,0.2,0,0.3c0,0.1,0.1,0.2,0.1,0.3c0,0.1,0.1,0.2,0.2,0.3c0.5,0.4-1.3,1.8-1.9,2.2c-0.1,0.1-0.1,0.1,0,0.2
				c1.5,0.1,3.1-0.3,4.3-0.8c0.1-0.1,0.3-0.1,0.4-0.2c0.2-0.1,0.4-0.3,0.6-0.4c0.2-0.1,2.3-0.2,2,0.3c-0.6,1.1,0,2.3,0.2,3.4
				c0.1,0.5,0,0.8-0.1,1.2c0,0.1-0.1,0.2-0.2,0.2c-0.4,0.1-0.7,0.2-0.5,0.3c0.2,0.1,0.4,0.3,0.5,0.4s0.1,0.2,0.1,0.4
				c0.1,0.4,0.2,0.8,0.3,1.2c0,0.1,0.1,0.1,0.2,0c0.5-0.8,0.6-1.2,1.5-1c0.6,0.1,1.3,0.3,1.9,0.5c0.1,0,0.1,0,0-0.1
				c-0.3-0.2-0.6-0.5-0.9-0.7c-0.1-0.1-0.1-0.1,0-0.1c0.6,0.1,0.7-0.4,1-0.6c0.1-0.1,0.1-0.1,0,0c-0.5,0.1-0.9,0.2-1.4,0.1
				c-1.4-0.1-1.8-1.3-1.6-2.6c0.1-0.7,0.7-3,1.5-3.2c0.4-0.1,0.8,0.1,0.9,0.5c0.2,0.3,0.1,0.7,0.1,1.1s0,0.8,0.1,1.1
				c0.1,0.3,0.4,0.5,0.7,0.8c0.2,0.2,0.4,0.6,0.3,0.9s-0.4,0.5-0.7,0.5c-0.2,0-0.5,0-0.7,0c-0.1,0-0.1,0-0.1,0.1
				c0.6,0.5,2,0,1.7,1.1c0.2,0,0.1,0.2,0.1,0.5c0,0.1,0,0.2,0.1,0.1c0.4-0.2,0.6-0.5,0.6-1c0-0.1,2.3,0.6,2.4,0.7
				c0.2,0.1,0.4,0.1,0.6,0.1c0.1,0,0.2,0,0.1-0.1c-0.1-0.3-0.2-0.5-0.6-0.5c-0.3-0.1-0.6-0.2-0.9-0.3c-0.1,0-0.1-0.1,0-0.1
				c0.6,0,1.8,0.2,1.8-0.4c0-0.1-0.1-0.2-0.2-0.2c-0.2,0-0.4,0.1-0.6,0.1c-0.8,0-1.6,0.1-2.2-0.4s-0.7-1.6-0.6-2.3
				c0.2-3.5,3.8-5.5,4.8-8.8c0.5-1.6,0.1-3-0.7-4.4C28,7.8,27.7,7.4,27.5,6.6L27.5,6.6z"/>
		</g>
	</g>
	<g class="st3">
		<g class="st1">
			<path class="st5" d="M25.3,1.5c-3.9,6.5-7,3.3-11.6,7.9c-4,4.1-2.6,9.1,0.8,10.8c3.3-1.7,6.7-5.5,9.2-11c0,0,2.3,6.9-4.7,13.6
				c3.4,3.9,9.1,1.2,10.7-5.1C31.5,11,27,4,25.3,1.5L25.3,1.5z M10.9,24c0,0.1,0.1,1.3,1.7,1.3c1.2,0,7.4-3.4,10.5-12.1
				C18.4,21.7,11.5,23.8,10.9,24L10.9,24z"/>
		</g>
	</g>
	<g>
		<g>
			<path class="st7" d="M34.1,16.8c-0.7-0.4-1.3-0.8-2-1.1c0,0-0.1-0.1-0.2-0.1c0.3,0,0.6-0.1,0.9-0.1c0.7,0,1.3-0.1,2-0.3
				c0.3-0.1,0.5-0.2,0.7-0.5c0.1-0.2,0.1-0.2,0-0.3c0.1-0.2,0.2-0.6-0.1-0.9c0,0-0.1,0.5-0.3,0.7c-0.1-0.1-0.2-0.1-0.4-0.2
				c-0.1,0.1-0.4,0.1-0.6,0c0,0,0,0,0,0.1l0,0c-0.1,0-0.2,0-0.3,0s-0.2,0-0.2,0c-0.1,0.1-0.2,0.1-0.3,0c-0.1,0.1-0.3,0.1-0.5,0.1
				c-0.4-0.1-0.8-0.1-1.1-0.2c-0.1,0-0.2,0-0.2,0l0,0c0.1,0,0.1,0,0.2,0c0.5,0,1,0,1.5-0.1c0.2,0,0.4-0.1,0.7-0.1
				c0.2,0,0.3-0.1,0.5-0.1c0,0.2-0.1,0.3-0.1,0.3c0.3,0,0.4-0.2,0.5-0.4l0,0c-0.1,0.2-0.2,0.4-0.2,0.4c0.4,0,0.6-0.3,0.7-0.6
				c0,0,0.1,0,0.1-0.1c0.3-0.1,0.4-0.2,0.4-0.6c0-0.3-0.2-0.5-0.5-0.6c-0.2,0-0.5-0.1-0.7-0.1s-0.3,0-0.5,0s-0.4-0.1-0.6-0.2
				c-0.1-0.1-0.3-0.1-0.4-0.1c-0.4,0-0.8,0.1-1.1,0c-0.1,0-0.2,0-0.3,0c-0.3,0.1-0.7,0.1-1,0.1s-0.6,0-0.9,0.1
				c-0.5,0.1-0.9,0.4-1.2,0.9l-0.1,0.1c-0.5,0.3-0.7,0.7-1,1.2c-0.2,0.4-0.1,0.8,0.2,1.2c0.3,0.4,0.7,0.8,1.1,1.1
				c0.6,0.5,1.3,1,2,1.4c0.7,0.5,1.5,1,2.3,1.5c0.5,0.3,0.9,0.7,1.3,1.3c-0.2,0.1-0.4,0.2-0.6,0.2c-0.3,0.1-0.6,0.1-0.9,0.2
				c-0.2,0-0.4,0.1-0.6,0.1c-0.4,0-0.8,0-1.2,0c-0.5,0-0.9-0.1-1.4-0.2c-0.8-0.1-1.5-0.4-2.3-0.6c-0.3-0.1-0.5-0.3-0.8-0.5
				c-0.1-0.1-0.1-0.2-0.1-0.3c-0.2-1.3-0.7-2.4-1.5-3.5c-0.4-0.5-0.8-0.9-1.3-1.2c-0.9-0.7-2-1.1-3-1.5c-1.2-0.4-2.4-0.7-3.7-0.9
				c-1-0.2-2-0.2-3-0.5c-0.6-0.2-1.2-0.4-1.9-0.7c0.1-0.1,0.2-0.1,0.3-0.2c0.6-0.3,1.2-0.6,1.7-1c0.4-0.2,0.7-0.5,0.9-0.9
				c0.3-0.5,0.3-1,0.1-1.5s-0.7-0.9-1.2-1.1c-1-0.3-2-0.4-3-0.4C9.6,6,8.3,6,7,6C6.1,6,5.3,5.7,4.5,5.2C4,4.8,3.8,4.2,4,3.6
				C4.1,3.3,4.2,3,4.3,2.8c0,0,0-0.1,0-0.2c-0.4,0.6-0.9,1.2-0.7,2c0,0.4,0.2,0.7,0.5,1c0.6,0.6,1.3,1.1,2.2,1.3
				C7,7.1,7.7,7.1,8.4,7.2c1,0.1,2.1,0.2,3.1,0.4c0.3,0.1,0.7,0.3,1.1,0.4c0.1,0,0.1,0.1,0.2,0.1c-0.1,0-0.1,0.1-0.2,0.1
				C12,8.5,11.4,8.7,10.8,9C10,9.4,9.2,10,9,10.9c-0.3,1.1-0.2,1.8,0.8,2.7c0.8,0.7,1.8,1.1,2.9,1.4c1,0.3,2.1,0.5,3.1,0.7
				c1,0.1,2,0.4,2.9,0.7c0.7,0.2,1.4,0.5,2.1,0.9c0.4,0.3,0.8,0.5,1,0.9c0.3,0.5,0.4,1,0.5,1.5c0.1,0.4,0.1,0.8,0.2,1.2
				c0.2,0.9,0.7,1.5,1.4,2.1c0.8,0.7,1.7,1.1,2.7,1.4c1.3,0.4,2.6,0.6,3.9,0.7c1.6,0,3.1-0.2,4.5-0.8c0.9-0.4,1.6-0.9,2.1-1.7
				c0.1-0.2,0.2-0.4,0.3-0.7c0.2-0.9-0.1-1.8-0.6-2.6C36.2,18.2,35.2,17.4,34.1,16.8L34.1,16.8z"/>
		</g>
	</g>
	<g class="st3">
		<g class="st1">
			<path class="st5" d="M29.3,12.4c-0.5-0.4-1.2-0.6-1.7-0.8s-1-0.4-1.4-0.8c-0.5-0.4-0.7-0.9-1-1.4c-0.5-0.6-1.8-0.7-2.5-1
				c-0.8-0.4-1.5-1-2-1.8l0,0c-0.3-0.5-0.6-0.9-1.3-0.9c-0.8,0.1-1.1,0.8-1.3,1.5c-0.2,0.7-0.4,1.5-0.9,2.1c-0.4,0.5-0.9,0.8-1.4,1
				c-0.4,0.1-0.8,0.2-1.1,0.2c-0.4,0.1-0.5,0-0.5,0.4c0,0.3-0.1,0.6-0.2,1c-0.4,1.3-1.3,2.1-2,2.6c-0.5,0.4-1.2,1.3-0.5,1.8
				c0.8,0.6,2.1,0.6,3,1.1c0.3,0.1,0.5,0.3,0.7,0.5c0.4,0.4,0.6,0.8,0.6,1.3c0,0.4,0,0.8-0.2,1.2c-0.3,0.6-0.7,1-1.4,1.4
				c-0.4,0.2-0.9,0.4-1.3,0.5c-0.8,0.3-1.7,0.9-1.2,1.9c0.2,0.6,0.6,0.8,1.1,0.8l0,0c0.3,0,0.7-0.1,1-0.4c1.1-0.7,1.1-2.1,2-2.9
				c0.3-0.3,0.6-0.4,1-0.6c0.3-0.1,0.6-0.1,0.9-0.1c0.8,0,1.7,0.4,2.1,1.1c0.4,0.6,0.5,1.4,1.1,1.9c1,0.8,1.9,0.4,2.7-0.5
				c0.5-0.6,1.1-1,1.8-1.3c0.6-0.2,1.3-0.1,1.8-0.3c1-0.4,0.7-1.1,0.2-1.8c-0.7-0.9-1.2-2.2-0.6-3.4c0.4-0.8,1.2-1.3,2-1.6
				c0.7-0.3,1.3-0.9,1.2-1.7C29.9,13,29.6,12.6,29.3,12.4L29.3,12.4z M16.1,15.5c-0.5,0-0.9-0.4-0.9-0.9s0.4-0.9,0.9-0.9
				s0.9,0.4,0.9,0.9S16.6,15.5,16.1,15.5L16.1,15.5z M22.3,14.2c-0.7,0-1.3-0.6-1.3-1.3s0.6-1.3,1.3-1.3c0.7,0,1.3,0.6,1.3,1.3
				S23,14.2,22.3,14.2L22.3,14.2z"/>
			<path class="st5" d="M30.6,10.7c-0.7-0.5-1.5-0.9-2.4-1.2c-0.7-0.2-1-0.8-1.4-1.3c-0.4-0.6-1-1-1.7-1.2S23.5,6.7,23,6.3
				c-0.5-0.4-0.7-1-1-1.5c-0.5-0.6-1.2-1-1.9-1.2c-1.6-0.3-3.1,0.6-3.7,2.1c-0.3,0.7-0.3,1.5-0.8,2.2c-0.4,0.5-1,0.6-1.5,0.7
				c-0.7,0.1-1.3,0.3-1.7,0.9c-0.6,0.8-0.3,1.8-0.8,2.6c-0.4,0.6-1,1.1-1.5,1.6c-1.2,1.1-1.4,2.9-0.4,4.2c0.6,0.7,1.4,1,2.3,1.3
				c0.4,0.1,1.5,0.1,1.5,0.7c0,0.5-1,0.7-1.3,0.8c-0.6,0.2-1.3,0.4-1.8,1c-0.9,0.9-1.2,2.3-0.8,3.5c0.4,1,1.2,1.8,2.2,2.1
				c0.8,0.2,1.7,0.1,2.5-0.2c1.2-0.5,2.2-1.6,2.6-2.8c0.1-0.4,0.4-0.9,0.9-0.8c0.4,0.1,0.4,0.5,0.5,0.9c0.2,0.4,0.4,0.8,0.7,1.1
				c0.6,0.6,1.3,1.1,2.1,1.3c0.8,0.3,1.8,0.2,2.6-0.2c0.9-0.4,1.2-1.3,1.9-1.8c0.5-0.4,1.2-0.4,1.8-0.5c1.5-0.3,2.7-1.6,2.6-3.2
				c0-0.7-0.3-1.3-0.7-1.8c-0.4-0.6-0.9-1.3-0.1-1.8s1.5-0.7,2.1-1.4c0.6-0.8,0.9-1.7,0.7-2.7C31.9,12.1,31.4,11.3,30.6,10.7
				L30.6,10.7z M30.4,14.8c-0.2,0.4-0.6,0.7-1,0.9c-0.1,0-0.2,0.1-0.3,0.1c-0.2,0.1-0.5,0.2-0.8,0.4c-0.7,0.4-1,1.2-0.8,2.1
				c0.3,1.2,1.8,2.1,1.2,3.5c-0.2,0.4-0.4,0.6-0.6,0.7c-0.3,0.1-0.7,0.2-1.1,0.3c-0.6,0.1-1.2,0.2-1.9,0.6c-0.5,0.3-0.8,0.8-1.1,1.2
				c-0.9,1.1-2.5,1-3.5,0.2c-0.5-0.4-0.8-0.9-0.9-1.5c-0.2-0.8-1.1-1.3-1.9-1.3c-0.8,0-1.4,0.7-1.7,1.4c-0.3,0.8-0.8,1.6-1.6,2.1
				c-0.5,0.3-1,0.5-1.4,0.5c0,0,0,0-0.1,0c-0.6,0-1.1-0.2-1.5-0.6c-0.8-0.7-0.8-2-0.1-2.8c0.6-0.7,1.7-0.8,2.5-1.3
				c1-0.6,1.7-1.8,0.6-2.7c-0.5-0.4-1.1-0.6-1.7-0.7c-0.7-0.2-1.6-0.4-2-1c-0.8-1.1-0.1-2.2,0.8-2.9c0.7-0.5,1.4-1.1,1.7-2.2
				c0.2-0.6,0-1.6,0.7-1.9c0.7-0.3,1.5-0.2,2.2-0.6c0.7-0.3,1-1,1.2-1.7c0.2-0.6,0.3-1.3,0.6-1.8c0.4-0.7,1.2-1,1.9-0.9
				c1,0.1,1.4,0.9,1.9,1.7c0.4,0.7,0.9,1.1,1.7,1.3l1.4,0.4c0.7,0.2,1.1,0.5,1.3,1c0.4,0.8,1,1.3,1.8,1.6s1.5,0.6,2,1
				C30.8,12.5,31,13.8,30.4,14.8L30.4,14.8z"/>
		</g>
	</g>
	<g class="st3">
		<path class="st4" d="M28.9,8.2c-4.4,0-7.3,3.6-9.8,6.7c-2.2,2.7-4.2,5.2-6.8,5.2s-4.2-2.7-4.2-4.6c0-1.8,1.8-4.4,4.5-4.4
			s4.1,2.1,4.1,2.3c0.4,0.7,1.4,0.9,2.1,0.5s0.9-1.4,0.5-2.1c-0.1-0.1-2.3-3.7-6.7-3.7S5.1,12,5.1,15.5c0,3.6,3,7.6,7.2,7.6
			c3.9,0,6.6-3.2,9.1-6.4c2.3-2.9,4.6-5.6,7.5-5.6c1.8,0,2.9,0.6,3.5,1.8c0.5,1.1,0.5,2.3,0.5,2.7c0,0.2-0.1,1.4-0.7,2.5
			c-0.7,1.2-1.6,1.8-3,1.8c-2.7,0-4.2-1.8-4.8-2.5c-0.1-0.2-0.2-0.3-0.4-0.4c-0.6-0.5-1.6-0.5-2.1,0.2c-0.5,0.6-0.5,1.5,0.1,2.1
			l0.1,0.1c0.7,0.9,2.9,3.5,7.1,3.5c5.1,0,6.7-4.9,6.7-7.3c0-1.5-0.3-2.9-0.9-4C34.3,10.1,32.6,8.2,28.9,8.2L28.9,8.2z"/>
	</g>
	<g class="st3">
		<path class="st4" d="M21,0.6h-9.4c-0.3,0-0.5,0.2-0.5,0.5v9.4c0,0.3,0.2,0.5,0.5,0.5H21c0.3,0,0.5-0.2,0.5-0.5V1.1
			C21.5,0.8,21.3,0.6,21,0.6L21,0.6z"/>
		<path class="st4" d="M34.7,0.6h-9.4c-0.3,0-0.5,0.2-0.5,0.5v9.4c0,0.3,0.2,0.5,0.5,0.5h9.4c0.3,0,0.5-0.2,0.5-0.5V1.1
			C35.2,0.8,35,0.6,34.7,0.6L34.7,0.6z"/>
		<path class="st4" d="M21,14.3h-9.4c-0.3,0-0.5,0.2-0.5,0.5v9.4c0,0.3,0.2,0.5,0.5,0.5H21c0.3,0,0.5-0.2,0.5-0.5v-9.4
			C21.5,14.6,21.3,14.3,21,14.3L21,14.3z"/>
		<path class="st4" d="M34.7,14.3h-9.4c-0.3,0-0.5,0.2-0.5,0.5v9.4c0,0.3,0.2,0.5,0.5,0.5h9.4c0.3,0,0.5-0.2,0.5-0.5v-9.4
			C35.2,14.6,35,14.3,34.7,14.3L34.7,14.3z"/>
	</g>
	<g class="st0">
		<path class="st8" d="M33.4,2.4c2.7,2.7,4.2,6.4,4.2,10.3s-1.5,7.5-4.2,10.3c-2.7,2.7-6.4,4.2-10.3,4.2s-7.5-1.5-10.3-4.2
			c-2.7-2.7-4.2-6.4-4.2-10.3s1.6-7.5,4.3-10.3c2.7-2.7,6.4-4.2,10.3-4.2S30.7-0.3,33.4,2.4L33.4,2.4z M32.2,21.6
			c1.8-1.8,3-4,3.5-6.4c-0.4,0.6-0.7,0.8-1-0.5c-0.2-2.1-2.1-0.7-3.3-1.5c-1.2,0.8-4-1.6-3.6,1.2c0.7,1.3,4-1.7,2.4,1
			c-1,1.9-3.8,6-3.4,8.1c0,3.1-3.2,0.6-4.3-0.4c-0.7-2.1-0.3-5.7-2.2-6.7c-2.1-0.1-3.9-0.3-4.8-2.7C15,12.1,16,9.6,17.8,9.2
			c2.7-1.7,3.6,2,6.1,2c0.8-0.8,2.9-1.1,3.1-2c-1.6-0.3,2.1-1.4-0.2-2c-1.2,0.1-2,1.3-1.4,2.2C23.1,10,23,6,20.7,7.3
			c-0.1,2-3.7,0.6-1.3,0.2c0.8-0.4-1.4-1.4-0.2-1.2c0.6,0,2.6-0.7,2-1.2c1.1-0.7,2,1.7,3.1-0.1C25.1,3.7,24,3.4,23,4.1
			c-0.6-0.6,1-2,2.3-2.5c0.5-0.2,0.9-0.3,1.2-0.3c0.7,0.8,1.9,0.9,2-0.1C27,0.4,25.1,0,23.2,0c-2.8,0-5.4,0.9-7.6,2.5
			c0.6,0.3,0.9,0.6,0.4,1c-0.4,1.3-2.2,3.1-3.8,2.8c-0.8,1.4-1.4,3-1.6,4.6c1.3,0.4,1.6,1.3,1.3,1.6c-0.7,0.6-1.1,1.4-1.3,2.3
			c0.4,2.6,1.6,5,3.5,6.9c2.4,2.4,5.6,3.7,9,3.7C26.6,25.4,29.8,24,32.2,21.6L32.2,21.6z"/>
	</g>
	<g class="st3">
		<path class="st4" d="M23.2,1.3c6.3,0,11.4,5.1,11.4,11.4S29.5,24,23.2,24s-11.4-5.1-11.4-11.4S16.9,1.3,23.2,1.3 M23.2-1.1
			c-7.6,0-13.8,6.2-13.8,13.8s6.2,13.8,13.8,13.8S37,20.3,37,12.7S30.8-1.1,23.2-1.1L23.2-1.1z"/>
		<g class="st1">
			<g>
				<g>
					<circle class="st5" cx="22.8" cy="19.4" r="1.2"/>
				</g>
			</g>
			<g>
				<path class="st5" d="M22.8,17.1c-0.7,0-1.2-0.5-1.2-1.2c0-1.8,1.1-2.8,1.7-3.1h0.1c3.2-1.4,2.6-3.5,2.6-3.6V9
					c0-0.3-0.4-1.8-2.9-1.8c-0.6,0-2.5,0.1-2.6,1.7c0,0.7-0.6,1.2-1.3,1.1c-0.7,0-1.2-0.6-1.1-1.2c0.1-1.4,1.2-4,5-4
					c3.7,0,5,2.4,5.3,3.8c0.4,1.5,0.1,4.7-3.9,6.4c0,0-0.4,0.3-0.4,1C24,16.6,23.5,17.1,22.8,17.1z"/>
			</g>
		</g>
	</g>
</g>
</svg>
