<?xml version="1.0" encoding="utf-8"?>
<!-- Generator: Adobe Illustrator 18.1.1, SVG Export Plug-In . SVG Version: 6.00 Build 0)  -->
<svg version="1.1" id="Layer_1" xmlns="http://www.w3.org/2000/svg" xmlns:xlink="http://www.w3.org/1999/xlink" x="0px" y="0px"
	 viewBox="0 0 26.5 26.5" enable-background="new 0 0 26.5 26.5" xml:space="preserve">
<g>
	<path fill="#FFFFFF" d="M8.7,1C4.5,1,1,4.5,1,8.7s3.5,7.7,7.7,7.7c2,0,3.8-0.8,5.2-2c0,0,0,0.1,0.1,0.1l1.6,1.6
		c-0.1,0.2-0.2,0.5-0.2,0.7c0,0.4,0.2,0.8,0.4,1l6.2,6.2c0.3,0.3,0.6,0.4,1,0.4c0.4,0,0.8-0.2,1-0.4c0.3-0.3,0.4-0.6,0.4-1
		c0-0.4-0.2-0.8-0.4-1l-6.2-6.2c-0.5-0.5-1.2-0.5-1.8-0.2L14.5,14c0,0-0.1,0-0.1-0.1c1.3-1.4,2-3.2,2-5.2C16.4,4.5,13,1,8.7,1z
		 M17.3,16.3l6.2,6.2c0.1,0.1,0.2,0.3,0.2,0.5c0,0.2-0.1,0.4-0.2,0.5c-0.3,0.3-0.8,0.3-1,0l-6.2-6.2c-0.1-0.1-0.2-0.3-0.2-0.5
		c0-0.2,0.1-0.4,0.2-0.5c0.1-0.1,0.3-0.2,0.5-0.2C17,16.1,17.2,16.2,17.3,16.3z M8.7,15.7c-3.9,0-7-3.1-7-7s3.1-7,7-7
		c3.9,0,7,3.1,7,7S12.6,15.7,8.7,15.7z"/>
	<path fill="#FFFFFF" d="M8.7,3.2c-3,0-5.5,2.5-5.5,5.5s2.5,5.5,5.5,5.5c3,0,5.5-2.5,5.5-5.5S11.8,3.2,8.7,3.2z M8.7,13.5
		c-2.6,0-4.8-2.1-4.8-4.8s2.1-4.8,4.8-4.8s4.8,2.1,4.8,4.8S11.4,13.5,8.7,13.5z"/>
</g>
</svg>
