<?xml version="1.0" encoding="utf-8"?>
<!-- Generator: Adobe Illustrator 19.0.1, SVG Export Plug-In . SVG Version: 6.00 Build 0)  -->
<svg version="1.1" id="Layer_1" xmlns="http://www.w3.org/2000/svg" xmlns:xlink="http://www.w3.org/1999/xlink" x="0px" y="0px"
	 viewBox="0 0 32.1 32.1" enable-background="new 0 0 32.1 32.1" xml:space="preserve">
<g>
	<path fill="#CFD0D1" d="M16,0C7.2,0,0,7.2,0,16s7.2,16,16,16c8.8,0,16-7.2,16-16S24.9,0,16,0z M16,31c-8.3,0-15-6.7-15-15
		s6.7-15,15-15s15,6.7,15,15S24.3,31,16,31z"/>
	<g>
		<path fill="#CFD0D1" d="M21,24.5h-10c-1.9,0-3.5-1.6-3.5-3.5v-10c0-1.9,1.6-3.5,3.5-3.5h10c1.9,0,3.5,1.6,3.5,3.5v10
			C24.5,22.9,22.9,24.5,21,24.5z M11.1,8.3c-1.5,0-2.8,1.2-2.8,2.8v10c0,1.5,1.2,2.8,2.8,2.8h10c1.5,0,2.8-1.2,2.8-2.8v-10
			c0-1.5-1.2-2.8-2.8-2.8H11.1z M21,22.9h-10c-1.1,0-1.9-0.9-1.9-1.9v-7h3.4l-0.2,0.5C12.1,15,12,15.5,12,16c0,2.2,1.8,4.1,4.1,4.1
			s4.1-1.8,4.1-4.1c0-0.5-0.1-1-0.3-1.5L19.6,14h3.4v7C22.9,22.1,22.1,22.9,21,22.9z M9.9,14.7V21c0,0.7,0.5,1.2,1.2,1.2h10
			c0.7,0,1.2-0.5,1.2-1.2v-6.3h-1.5c0.1,0.4,0.2,0.9,0.2,1.3c0,2.7-2.2,4.8-4.8,4.8s-4.8-2.2-4.8-4.8c0-0.4,0.1-0.9,0.2-1.3H9.9z
			 M16,19.3c-1.8,0-3.2-1.4-3.2-3.2c0-0.7,0.2-1.3,0.6-1.9c0.6-0.8,1.6-1.3,2.6-1.3c1,0,2,0.5,2.6,1.3c0.4,0.6,0.6,1.2,0.6,1.9
			C19.3,17.8,17.8,19.3,16,19.3z M16,13.6c-0.8,0-1.5,0.4-2,1c-0.3,0.4-0.5,0.9-0.5,1.4c0,1.4,1.1,2.5,2.5,2.5
			c1.4,0,2.5-1.1,2.5-2.5c0-0.5-0.2-1-0.5-1.4C17.6,13.9,16.8,13.6,16,13.6z M19.2,12.9l0-3.5l3.5,0v3.5L19.2,12.9z M19.9,10.2l0,2
			l2,0v-2L19.9,10.2z"/>
	</g>
</g>
</svg>
