<?xml version="1.0" encoding="utf-8"?>
<!-- Generator: Adobe Illustrator 18.1.1, SVG Export Plug-In . SVG Version: 6.00 Build 0)  -->
<svg version="1.1" id="Layer_1" xmlns="http://www.w3.org/2000/svg" xmlns:xlink="http://www.w3.org/1999/xlink" x="0px" y="0px"
	 viewBox="1.7 152.4 365.3 64.4" enable-background="new 1.7 152.4 365.3 64.4" xml:space="preserve">
<g>
	<path fill="#FFFFFF" d="M111,194.1c-1.1,4.6-2.4,7.9-3.5,9.7c-0.8,1.1-1.8,2-3.2,2.3c-1.3,0.3-3.7,0.4-6.9,0.4
		c1.3-3.4,2.4-6.8,3.5-10.6c1-3.7,1.5-6.3,1.5-8.2c0-1.7-0.6-2.5-1.8-2.5c-2,0-3.9,1.8-6.1,5.6s-3.7,8.2-4.8,13.1l-0.4,2.1h-9.1
		c1.7-9.7,3.7-18.3,5.8-25.9c0.4-1.7,1.4-2.8,3-3.2c1.4-0.4,3.9-0.7,7.5-0.7c-0.7,2.4-1.5,4.9-2.3,7.9c4.1-5.5,8.3-8.3,12.7-8.3
		c4.1,0,6.1,2.3,6.1,6.6C112.7,185.5,112.2,189.3,111,194.1"/>
	<path fill="#FFFFFF" d="M119.1,182.4c3-4.4,6.5-6.6,10.6-6.6c3.4,0,5.8,1.5,7,4.6l1-3.9h9.1c-2.5,9.7-4.1,18.3-4.9,26
		c-0.1,1-0.4,1.7-0.7,2.3c-0.4,0.6-1,1-2,1.1c-1,0.3-1.8,0.4-2.8,0.4c-0.8,0-2.3,0.1-4.2,0.1c0.4-3.2,0.7-5.9,1-7.9
		c-3.5,5.5-7.5,8.2-11.8,8.2c-2.1,0-3.7-0.7-4.9-2.3c-1.3-1.5-1.8-3.8-1.8-6.9C114.6,191.8,116,186.8,119.1,182.4 M126.2,198.3
		c1.4,0,3-1.3,4.6-3.7c1.7-2.4,3-4.9,3.8-7.6c-0.1-1-0.6-2-1.1-2.7s-1.3-1-2.3-1c-2,0-3.7,1.3-5.1,3.8s-2,5.2-2,8.2
		C124.3,197.3,125,198.3,126.2,198.3"/>
	<path fill="#FFFFFF" d="M149.9,204.6c-1.5-1.4-2.3-3.7-2.3-6.6c0-2,0.6-5.5,1.7-10.7c1.1-5.1,2.4-9.7,3.7-13.8c0.4-1.1,1-2,1.8-2.7
		c0.8-0.6,2-1,3.1-1.1c1.3-0.1,3.1-0.1,5.5-0.1c-1,3.4-1.7,5.6-2.1,6.8h6.1c1.4,0,2.1,0.4,2.3,1.3c0.1,0.7-0.1,2.8-1,6.2h-9.4
		c-1.4,5.6-2.1,9.4-2.1,11.1c0,1.4,0.4,2.4,1.1,3.2c0.7,0.7,1.8,1.1,3.4,1.1s3-0.3,4.2-0.8l0.3,0.3l-0.7,3.1
		c-0.4,1.8-1.5,3.1-3.2,3.8c-1.8,0.8-3.8,1.1-6.2,1.1C153.4,206.7,151.4,206,149.9,204.6"/>
	<path fill="#FFFFFF" d="M194.5,205.8c-1.3,0.4-3.8,0.7-7.5,0.7c0.7-4.6,1.1-7.2,1.3-7.5c-3.9,5.2-8,7.7-12.2,7.7
		c-4.1,0-6.1-2.3-6.1-6.6c0-3.1,0.6-6.9,1.7-11.5s2.4-7.9,3.5-9.7c0.8-1.1,1.8-2,3.2-2.3c1.3-0.3,3.7-0.4,6.9-0.4
		c-1.3,3.4-2.4,6.8-3.5,10.6c-1,3.7-1.5,6.3-1.5,8.2c0,1.7,0.6,2.5,1.8,2.5c1.5,0,3.1-1.3,4.8-3.8c1.7-2.5,3.2-5.8,4.5-9.6
		c0.8-3.2,1.5-5.8,2.1-7.5h9.4c-2.5,8.4-4.5,17-6.1,25.9C196.8,204.2,195.9,205.3,194.5,205.8"/>
	<path fill="#FFFFFF" d="M201.7,206.2c1.7-9.7,3.7-18.3,5.8-25.9c0.4-1.7,1.4-2.8,3-3.2c1.4-0.4,3.9-0.7,7.5-0.7
		c-1.3,3.9-2.1,7.3-2.8,10.1c1.4-3,2.8-5.2,4.2-6.8c1.4-1.7,2.5-2.7,3.4-3.1c0.8-0.4,1.7-0.6,2.7-0.6c1,0,1.8,0.3,2.3,1
		c0.4,0.7,0.6,1.7,0.4,3.2c-0.1,1.5-0.6,3.5-1.4,6.1c-1.8-0.4-3.7-0.3-5.5,0.8c-1.8,1-3.2,2.5-4.6,4.6c-1.3,2.1-2.4,4.2-3.4,6.6
		c-1,2.4-1.7,4.8-2.1,7.3l-0.1,0.6h-9.1V206.2z"/>
	<path fill="#FFFFFF" d="M231.4,203.2c-2.4-2.4-3.5-5.5-3.5-9.4c0-5.1,1.5-9.3,4.5-12.8c3-3.4,7.2-5.1,12.4-5.1c3.1,0,5.8,0.8,8,2.5
		c2.1,1.7,3.2,4.1,3.2,7.2c0,5.9-6.1,9.3-18.2,10.1c1.1,2.7,3.5,3.9,7.5,3.9c2.4,0,4.5-0.4,6.5-1.4l0.3,0.3l-0.4,1.7
		c-0.6,2.4-1.7,4.1-3.5,5.1c-1.8,1-4.2,1.5-7.5,1.5C236.9,206.7,233.8,205.6,231.4,203.2 M239.1,184.6c-1,1.5-1.7,3.2-2,5.3
		c3.1-0.1,5.5-0.7,7-1.4c1.7-0.7,2.4-1.8,2.4-3.4c0-0.8-0.3-1.5-0.8-2.1c-0.6-0.6-1.4-0.8-2.4-0.8
		C241.6,182.4,240.2,183.1,239.1,184.6"/>
	<path fill="#FFFFFF" d="M258.5,205.5c-1.1-0.8-1.7-2.4-1.7-4.4c0-2.1,0.7-6.1,2.1-12.1c1.4-6.1,3.2-12.7,5.8-19.8
		c0.6-1.8,1.7-3,3.2-3.5c1.5-0.4,4.1-0.7,7.9-0.7c-2.8,8.7-5.1,16.2-6.5,22.1c-1.5,6.1-2.3,9.9-2.3,11.5c0,1.5,1,2.4,2.8,2.4h0.4
		l-0.4,1.7c-0.3,1.4-1.1,2.4-2.5,3.1s-3,1-4.6,1C261.1,206.7,259.7,206.3,258.5,205.5"/>
	<path fill="#FFFFFF" d="M288.9,204.6c-1,3-2,5.8-3,8.3c-0.6,1.4-1.4,2.3-2.4,2.8c-1,0.6-2.5,0.7-4.5,0.7c-1.1,0-2.5,0-4.1-0.1
		c1.7-4.1,3.1-7.9,3.9-11.1l-4.2-28.3l0.1-0.6H285l1.7,18.4c5.6-7.7,8.3-13.8,8.2-18.4h10.4C306,181.6,300.5,190.8,288.9,204.6"/>
	<path fill="#FFFFFF" d="M333,194.1c-1.1,4.6-2.4,7.9-3.5,9.7c-0.8,1.1-1.8,2-3.2,2.3c-1.3,0.3-3.7,0.4-6.9,0.4
		c1.3-3.4,2.4-6.8,3.5-10.6c1-3.7,1.5-6.3,1.5-8.2c0-1.7-0.6-2.5-1.8-2.5c-2,0-3.9,1.8-6.1,5.6c-2.1,3.8-3.7,8.2-4.8,13.1l-0.4,2.1
		h-9.1c1.7-9.7,3.7-18.3,5.8-25.9c0.4-1.7,1.4-2.8,3-3.2c1.4-0.4,3.9-0.7,7.5-0.7c-0.7,2.4-1.5,4.9-2.3,7.9
		c4.1-5.5,8.3-8.3,12.7-8.3c4.1,0,6.1,2.3,6.1,6.6C334.8,185.5,334.1,189.3,333,194.1"/>
	<path fill="#FFFFFF" d="M363.8,183.4c-2,2.8-4.6,5.8-7.9,8.7l5.8,13.4l-0.1,0.7h-9.7l-3.7-8.6c-3,3.1-4.8,6.1-5.5,8.6h-10.1
		c0.4-3.8,4.5-9.1,12.4-16l-5.6-12.9l0.1-0.7h9.7l3.4,7.9c2.3-2.8,3.8-5.3,4.5-7.9h10C366.9,178.3,365.8,180.6,363.8,183.4"/>
	<path fill="#FFFFFF" d="M35.7,215.9c-3.7-2.8-7.7-8-10.4-13.1c-3.5-6.6-4.2-14.4,2.1-19.4c1.7-1.4,4.1,0.1,3.7,2
		c-0.7,3.1,0.1,14.9,2.5,20.8c-1.1-9.9,0-18,2-21.5c1.8-3.4,4.8-3.1,7.2,0.3C45.7,189,50,199.1,35.7,215.9 M55.6,196.8
		c-0.3-2.8-2-2.3-3.8-0.6c-3.2,3.1-4.1,13.9-12.2,20.3c11.4,2.4,25.3-7.7,22-18.4c-0.7-2.3-2.8-4.1-3.5-0.6s-3.7,11.1-9.1,14.1
		C54.2,205.3,55.9,199.6,55.6,196.8 M31.7,216.2c-5.1-3-11.1-11.8-12.8-17.5c-2-6.3-6.5-5.2-5.5-1.1s2.1,8,7,13.4
		c-5.9-2.8-8.7-10.6-9-12c-0.3-1.7-2.4-3-2.7,0C8,207.2,14.9,217.9,31.7,216.2 M6.5,170.4c-1.5,3-3.5,6.8-4.4,10.6
		c-1.1,5.1,0.3,10.1,5.3,12c1.4,0.6,2.3-0.7,1.8-2c-0.6-1.7-2.8-9.6-2.4-14.1c1.1,6.8,3.5,11.7,5.5,13.5s3.8,1,4.8-1.7
		C18.2,186.3,19.7,179.9,6.5,170.4 M18.3,178.5c2,1.8,3.2,2,3.8-1.3c0.7-3.2-1.1-8.7,1.1-17.9c0.3,9.3,1.1,16.3,1.7,18.9
		c0.6,2.5,3.5,3.2,5.8-0.7c2.7-4.5,2-10.4-6.9-25.1C19,159.5,10.6,170.7,18.3,178.5 M52.2,165.9c-0.7-4.4-2.8-8.7-4.4-12.1
		C33.6,163.7,35,171,35.9,174c1,3.1,2.8,4.2,4.9,2.1c2.1-2,4.8-7.5,6.2-14.9c0.3,4.9-2.3,13.8-3,15.6c-0.4,1.3,0.4,2.8,1.8,2.3
		C51.7,177.2,53.2,171.7,52.2,165.9 M68.7,182.1c0-4.1-1.4-8.3-2.4-11.7c-15.5,6.5-15.2,13.4-14.6,16.2c0.6,3,2.3,4.2,4.5,2.8
		c2.4-1.4,5.8-5.9,8.3-12.5c-0.4,4.6-4.2,12.1-5.2,13.7c-0.7,1.1,0,2.5,1.5,2.4C66.4,192.2,68.8,187.6,68.7,182.1"/>
</g>
</svg>
