<?xml version="1.0" encoding="utf-8"?>
<!-- Generator: Adobe Illustrator 19.0.1, SVG Export Plug-In . SVG Version: 6.00 Build 0)  -->
<svg version="1.1" id="Layer_1" xmlns="http://www.w3.org/2000/svg" xmlns:xlink="http://www.w3.org/1999/xlink" x="0px" y="0px"
	 viewBox="0 0 80.7 78.5" enable-background="new 0 0 80.7 78.5" xml:space="preserve">
<g>
	<g>
		<g>
			<g>
				<path fill="#FFFFFF" d="M17.5,76.5l-0.4-2.8h-4l-1.2,2.7H8.7l6.4-13h3.3l2.2,12.5L17.5,76.5z M16.1,66.8l-2,4.4h2.6L16.1,66.8z"
					/>
				<path fill="#FFFFFF" d="M29.9,69.5c1.1,0.5,1.9,1.3,1.9,2.7c0,2.7-2.1,4.1-5.4,4.1h-4.4l2-12.9H28c2.7,0,4.1,1.1,4.1,3
					C32.2,68.1,31.1,69.1,29.9,69.5z M26.7,70.7H26l-0.6,3.5h1c1.4,0,2.3-0.7,2.3-1.9C28.7,71.2,28,70.7,26.7,70.7z M27.6,65.7h-0.8
					l-0.5,3h0.9c1.2,0,2.1-0.6,2.1-1.7C29.2,66.1,28.7,65.7,27.6,65.7z"/>
				<path fill="#FFFFFF" d="M47,76.3h-3.2l0.8-8.4L41,76.4h-2.9l-0.9-8.5l-1.9,8.4h-2.7l3-12.9h4l1,8.7l3.7-8.7h3.9L47,76.3z"/>
				<path fill="#FFFFFF" d="M52.3,76.3h-3.2l2-12.9h3.2L52.3,76.3z"/>
			</g>
			<g>
				<path fill="#FFFFFF" d="M22.3,43.3C30.8,42,59,45.8,68.6,25.4c-12.2,9.8-30.1,9.3-41.8,12.3C18.3,39.9,14,45,13.2,49.4
					c0,0,2.3-3.4,7-3.4c6.4,0,11.4,7,21.4,7c10,0,16.4-7.6,17.7-16.3c0,0-6,9.1-16.1,9.1c-6.8,0-12.4-2-17.9-2
					c-8.1,0-11.1,3.8-11.1,3.8C15.2,46.1,17.3,44.1,22.3,43.3z"/>
				<path fill="#FFFFFF" d="M70.9,12.3c-7,3.3-13.9,3.2-15.5-0.1c-1-2.1,0.4-5,3.2-7.7c0,0,0,0,0,0C46.9,6.4,41.2,15,41.2,15
					c-0.6-3.4,1.3-9.8,5.2-15c0,0-17.8,4-23.8,22.1c0,0-1-7.3,3.5-15.1c0,0-8.1,1.7-13.1,12.1c-5,10.4-3.6,20.8-3.6,20.8
					c0.4-10.2,5.8-19.7,10.2-23.8c-0.4,1.9,0.9,7.1,3.1,9.5C26.5,12.2,38,8.5,38,8.5c-0.3,1.5,0.2,7.3,2.8,9.8c0,0,4.4-7.2,12.6-8.5
					c-0.8,2.1-0.8,4.2,0.1,5.7c2.5,3.9,10.5,3.5,17.8-1.2c6.3-4.1,9.1-9.1,9.1-9.1C75.5,19,69.5,21.4,41.1,27
					C6.4,33.7-4.6,51,1.7,78.5c-1.3-27.8,6.2-39.3,41-46.3c28.9-5.8,34.1-9,38-27.9C79.2,7,75.2,10.3,70.9,12.3z M21.2,12.8
					c-0.5-0.3-1.6,0.4-2.8,1.3c2.1-2.7,4.8-3.5,4.8-3.5c-1.1,2.2-1.6,5.1-1.6,5.1S21.7,13,21.2,12.8z M40.3,8.2
					c-0.1-0.3-0.2-1.6-0.2-1.6S39.3,6.7,38.9,7c0-0.3,0.2-1.1,0.2-1.1s-1.5,0.3-2.6,0.7c2.4-2,6.6-3.7,6.6-3.7S41.1,4.7,40.3,8.2z
					 M53.8,8.6c-0.2-0.5-0.4-0.8-0.4-0.8s-1.8,0.5-2.9,0.9c0,0,3-1.6,5.2-2.2C54.9,7.3,54,8.3,53.8,8.6z"/>
			</g>
		</g>
	</g>
</g>
</svg>
